timestamp,Power
1498867200,58652.07940025767
1498870800,58652.07940025767
1498874400,40409.67910345767
1498878000,40409.67910345767
1498881600,40409.67910345767
1498885200,40409.67910345767
1498888800,91422.72021384301
1498892400,117963.08986755606
1498896000,159649.563611355
1498899600,135770.49016435607
1498903200,100822.39616216446
1498906800,91425.85421391595
1498910400,91425.85421391595
1498914000,86175.85421391595
1498917600,86175.85421391595
1498921200,86175.85421391595
1498924800,86610.85421391595
1498928400,95925.39093741543
1498932000,164821.0425897952
1498935600,176482.79478323815
1498939200,187793.3036617732
1498942800,190454.59986848736
1498946400,148925.85776293866
1498950000,84769.47969705766
1498953600,68634.22570160267
1498957200,68634.22570160267
1498960800,50391.82540480267
1498964400,50391.82540480267
1498968000,50391.82540480267
1498971600,50391.82540480267
1498975200,91422.72021384301
1498978800,127945.23616890106
1498982400,159649.563611355
1498986000,125788.34386301108
1498989600,100822.39616216446
1498993200,96416.92736458845
1498996800,96416.92736458845
1499000400,81184.78106324346
1499004000,81184.78106324346
1499007600,81184.78106324346
1499011200,81619.78106324346
1499014800,90934.31778674293
1499018400,154838.8962884502
1499022000,176482.79478323815
1499025600,197775.4499631182
1499029200,180472.45356714237
1499032800,138943.71146159366
1499036400,84769.47969705766
1499040000,56449.34500146967
1499043600,48704.85385231217
1499047200,40409.67910345767
1499050800,40409.67910345767
1499054400,40409.67910345767
1499058000,56449.34500146967
1499061600,124347.28696799208
1499065200,164816.7099127
1499068800,121771.12998609993
1499072400,116521.12998609993
1499076000,86676.46406039534
1499079600,86676.46406039534
1499083200,86676.46406039534
1499086800,81426.46406039536
1499090400,81426.46406039536
1499094000,81426.46406039536
1499097600,81861.46406039534
1499101200,98494.5653523587
1499104800,154908.7377952492
1499108400,180407.42148791614
1499112000,204850.83017852568
1499115600,194379.22657316536
1499119200,139013.55296839267
1499122800,80364.01089948168
1499126400,56449.34500146967
1499130000,48704.85385231217
1499133600,40409.67910345767
1499137200,40409.67910345767
1499140800,40409.67910345767
1499144400,56449.34500146967
1499148000,124347.28696799208
1499151600,164816.7099127
1499155200,121771.12998609993
1499158800,116521.12998609993
1499162400,86676.46406039534
1499166000,86676.46406039534
1499169600,86676.46406039534
1499173200,81426.46406039536
1499176800,81426.46406039536
1499180400,81426.46406039536
1499184000,81861.46406039534
1499187600,98494.5653523587
1499191200,154908.7377952492
1499194800,180407.42148791614
1499198400,204850.83017852568
1499202000,194379.22657316536
1499205600,139013.55296839267
1499209200,80364.01089948168
1499212800,56449.34500146967
1499216400,48704.85385231217
1499220000,40409.67910345767
1499223600,40409.67910345767
1499227200,40409.67910345767
1499230800,56449.34500146967
1499234400,124347.28696799208
1499238000,164816.7099127
1499241600,121771.12998609993
1499245200,116521.12998609993
1499248800,86676.46406039534
1499252400,86676.46406039534
1499256000,86676.46406039534
1499259600,81426.46406039536
1499263200,81426.46406039536
1499266800,81426.46406039536
1499270400,81861.46406039534
1499274000,98494.5653523587
1499277600,154908.7377952492
1499281200,180407.42148791614
1499284800,204850.83017852568
1499288400,194379.22657316536
1499292000,139013.55296839267
1499295600,80364.01089948168
1499299200,56449.34500146967
1499302800,48704.85385231217
1499306400,40409.67910345767
1499310000,40409.67910345767
1499313600,40409.67910345767
1499317200,56449.34500146967
1499320800,124347.28696799208
1499324400,164816.7099127
1499328000,121771.12998609993
1499331600,116521.12998609993
1499335200,86676.46406039534
1499338800,86676.46406039534
1499342400,86676.46406039534
1499346000,81426.46406039536
1499349600,81426.46406039536
1499353200,81426.46406039536
1499356800,81861.46406039534
1499360400,98494.5653523587
1499364000,154908.7377952492
1499367600,180407.42148791614
1499371200,204850.83017852568
1499374800,194379.22657316536
1499378400,139013.55296839267
1499382000,80364.01089948168
1499385600,56449.34500146967
1499389200,48704.85385231217
1499392800,40409.67910345767
1499396400,40409.67910345767
1499400000,40409.67910345767
1499403600,56449.34500146967
1499407200,124347.28696799208
1499410800,164816.7099127
1499414400,121771.12998609993
1499418000,116521.12998609993
1499421600,86676.46406039534
1499425200,86676.46406039534
1499428800,86676.46406039534
1499432400,81426.46406039536
1499436000,81426.46406039536
1499439600,81426.46406039536
1499443200,81861.46406039534
1499446800,98494.5653523587
1499450400,154908.7377952492
1499454000,180407.42148791614
1499457600,204850.83017852568
1499461200,194379.22657316536
1499464800,139013.55296839267
1499468400,80364.01089948168
1499472000,58652.07940025767
1499475600,58652.07940025767
1499479200,40409.67910345767
1499482800,40409.67910345767
1499486400,40409.67910345767
1499490000,40409.67910345767
1499493600,91422.72021384301
1499497200,117963.08986755606
1499500800,159649.563611355
1499504400,135770.49016435607
1499508000,100822.39616216446
1499511600,91425.85421391595
1499515200,91425.85421391595
1499518800,86175.85421391595
1499522400,86175.85421391595
1499526000,86175.85421391595
1499529600,86610.85421391595
1499533200,95925.39093741543
1499536800,164821.0425897952
1499540400,176482.79478323815
1499544000,187793.3036617732
1499547600,190454.59986848736
1499551200,148925.85776293866
1499554800,84769.47969705766
1499558400,68634.22570160267
1499562000,68634.22570160267
1499565600,50391.82540480267
1499569200,50391.82540480267
1499572800,50391.82540480267
1499576400,50391.82540480267
1499580000,91422.72021384301
1499583600,127945.23616890106
1499587200,159649.563611355
1499590800,125788.34386301108
1499594400,100822.39616216446
1499598000,96416.92736458845
1499601600,96416.92736458845
1499605200,81184.78106324346
1499608800,81184.78106324346
1499612400,81184.78106324346
1499616000,81619.78106324346
1499619600,90934.31778674293
1499623200,154838.8962884502
1499626800,176482.79478323815
1499630400,197775.4499631182
1499634000,180472.45356714237
1499637600,138943.71146159366
1499641200,84769.47969705766
1499644800,56449.34500146967
1499648400,48704.85385231217
1499652000,40409.67910345767
1499655600,40409.67910345767
1499659200,40409.67910345767
1499662800,56449.34500146967
1499666400,124347.28696799208
1499670000,164816.7099127
1499673600,121771.12998609993
1499677200,116521.12998609993
1499680800,86676.46406039534
1499684400,86676.46406039534
1499688000,86676.46406039534
1499691600,81426.46406039536
1499695200,81426.46406039536
1499698800,81426.46406039536
1499702400,81861.46406039534
1499706000,98494.5653523587
1499709600,154908.7377952492
1499713200,180407.42148791614
1499716800,204850.83017852568
1499720400,194379.22657316536
1499724000,139013.55296839267
1499727600,80364.01089948168
1499731200,56449.34500146967
1499734800,48704.85385231217
1499738400,40409.67910345767
1499742000,40409.67910345767
1499745600,40409.67910345767
1499749200,56449.34500146967
1499752800,124347.28696799208
1499756400,164816.7099127
1499760000,121771.12998609993
1499763600,116521.12998609993
1499767200,86676.46406039534
1499770800,86676.46406039534
1499774400,86676.46406039534
1499778000,81426.46406039536
1499781600,81426.46406039536
1499785200,81426.46406039536
1499788800,81861.46406039534
1499792400,98494.5653523587
1499796000,154908.7377952492
1499799600,180407.42148791614
1499803200,204850.83017852568
1499806800,194379.22657316536
1499810400,139013.55296839267
1499814000,80364.01089948168
1499817600,56449.34500146967
1499821200,48704.85385231217
1499824800,40409.67910345767
1499828400,40409.67910345767
1499832000,40409.67910345767
1499835600,56449.34500146967
1499839200,124347.28696799208
1499842800,164816.7099127
1499846400,121771.12998609993
1499850000,116521.12998609993
1499853600,86676.46406039534
1499857200,86676.46406039534
1499860800,86676.46406039534
1499864400,81426.46406039536
1499868000,81426.46406039536
1499871600,81426.46406039536
1499875200,81861.46406039534
1499878800,98494.5653523587
1499882400,154908.7377952492
1499886000,180407.42148791614
1499889600,204850.83017852568
1499893200,194379.22657316536
1499896800,139013.55296839267
1499900400,80364.01089948168
1499904000,56449.34500146967
1499907600,48704.85385231217
1499911200,40409.67910345767
1499914800,40409.67910345767
1499918400,40409.67910345767
1499922000,56449.34500146967
1499925600,124347.28696799208
1499929200,164816.7099127
1499932800,121771.12998609993
1499936400,116521.12998609993
1499940000,86676.46406039534
1499943600,86676.46406039534
1499947200,86676.46406039534
1499950800,81426.46406039536
1499954400,81426.46406039536
1499958000,81426.46406039536
1499961600,81861.46406039534
1499965200,98494.5653523587
1499968800,154908.7377952492
1499972400,180407.42148791614
1499976000,204850.83017852568
1499979600,194379.22657316536
1499983200,139013.55296839267
1499986800,80364.01089948168
1499990400,56449.34500146967
1499994000,48704.85385231217
1499997600,40409.67910345767
1500001200,40409.67910345767
1500004800,40409.67910345767
1500008400,56449.34500146967
1500012000,124347.28696799208
1500015600,164816.7099127
1500019200,121771.12998609993
1500022800,116521.12998609993
1500026400,86676.46406039534
1500030000,86676.46406039534
1500033600,86676.46406039534
1500037200,81426.46406039536
1500040800,81426.46406039536
1500044400,81426.46406039536
1500048000,81861.46406039534
1500051600,98494.5653523587
1500055200,154908.7377952492
1500058800,180407.42148791614
1500062400,204850.83017852568
1500066000,194379.22657316536
1500069600,139013.55296839267
1500073200,80364.01089948168
1500076800,58652.07940025767
1500080400,58652.07940025767
1500084000,40409.67910345767
1500087600,40409.67910345767
1500091200,40409.67910345767
1500094800,40409.67910345767
1500098400,91422.72021384301
1500102000,117963.08986755606
1500105600,159649.563611355
1500109200,135770.49016435607
1500112800,100822.39616216446
1500116400,91425.85421391595
1500120000,91425.85421391595
1500123600,86175.85421391595
1500127200,86175.85421391595
1500130800,86175.85421391595
1500134400,86610.85421391595
1500138000,95925.39093741543
1500141600,164821.0425897952
1500145200,176482.79478323815
1500148800,187793.3036617732
1500152400,190454.59986848736
1500156000,148925.85776293866
1500159600,84769.47969705766
1500163200,68634.22570160267
1500166800,68634.22570160267
1500170400,50391.82540480267
1500174000,50391.82540480267
1500177600,50391.82540480267
1500181200,50391.82540480267
1500184800,91422.72021384301
1500188400,127945.23616890106
1500192000,159649.563611355
1500195600,125788.34386301108
1500199200,100822.39616216446
1500202800,96416.92736458845
1500206400,96416.92736458845
1500210000,81184.78106324346
1500213600,81184.78106324346
1500217200,81184.78106324346
1500220800,81619.78106324346
1500224400,90934.31778674293
1500228000,154838.8962884502
1500231600,176482.79478323815
1500235200,197775.4499631182
1500238800,180472.45356714237
1500242400,138943.71146159366
1500246000,84769.47969705766
1500249600,56449.34500146967
1500253200,48704.85385231217
1500256800,40409.67910345767
1500260400,40409.67910345767
1500264000,40409.67910345767
1500267600,56449.34500146967
1500271200,124347.28696799208
1500274800,164816.7099127
1500278400,121771.12998609993
1500282000,116521.12998609993
1500285600,86676.46406039534
1500289200,86676.46406039534
1500292800,86676.46406039534
1500296400,81426.46406039536
1500300000,81426.46406039536
1500303600,81426.46406039536
1500307200,81861.46406039534
1500310800,98494.5653523587
1500314400,154908.7377952492
1500318000,180407.42148791614
1500321600,204850.83017852568
1500325200,194379.22657316536
1500328800,139013.55296839267
1500332400,80364.01089948168
1500336000,56449.34500146967
1500339600,48704.85385231217
1500343200,40409.67910345767
1500346800,40409.67910345767
1500350400,40409.67910345767
1500354000,56449.34500146967
1500357600,124347.28696799208
1500361200,164816.7099127
1500364800,121771.12998609993
1500368400,116521.12998609993
1500372000,86676.46406039534
1500375600,86676.46406039534
1500379200,86676.46406039534
1500382800,81426.46406039536
1500386400,81426.46406039536
1500390000,81426.46406039536
1500393600,81861.46406039534
1500397200,98494.5653523587
1500400800,154908.7377952492
1500404400,180407.42148791614
1500408000,204850.83017852568
1500411600,194379.22657316536
1500415200,139013.55296839267
1500418800,80364.01089948168
1500422400,56449.34500146967
1500426000,48704.85385231217
1500429600,40409.67910345767
1500433200,40409.67910345767
1500436800,40409.67910345767
1500440400,56449.34500146967
1500444000,124347.28696799208
1500447600,164816.7099127
1500451200,121771.12998609993
1500454800,116521.12998609993
1500458400,86676.46406039534
1500462000,86676.46406039534
1500465600,86676.46406039534
1500469200,81426.46406039536
1500472800,81426.46406039536
1500476400,81426.46406039536
1500480000,81861.46406039534
1500483600,98494.5653523587
1500487200,154908.7377952492
1500490800,180407.42148791614
1500494400,204850.83017852568
1500498000,194379.22657316536
1500501600,139013.55296839267
1500505200,80364.01089948168
1500508800,56449.34500146967
1500512400,48704.85385231217
1500516000,40409.67910345767
1500519600,40409.67910345767
1500523200,40409.67910345767
1500526800,56449.34500146967
1500530400,124347.28696799208
1500534000,164816.7099127
1500537600,121771.12998609993
1500541200,116521.12998609993
1500544800,86676.46406039534
1500548400,86676.46406039534
1500552000,86676.46406039534
1500555600,81426.46406039536
1500559200,81426.46406039536
1500562800,81426.46406039536
1500566400,81861.46406039534
1500570000,98494.5653523587
1500573600,154908.7377952492
1500577200,180407.42148791614
1500580800,204850.83017852568
1500584400,194379.22657316536
1500588000,139013.55296839267
1500591600,80364.01089948168
1500595200,56449.34500146967
1500598800,48704.85385231217
1500602400,40409.67910345767
1500606000,40409.67910345767
1500609600,40409.67910345767
1500613200,56449.34500146967
1500616800,124347.28696799208
1500620400,164816.7099127
1500624000,121771.12998609993
1500627600,116521.12998609993
1500631200,86676.46406039534
1500634800,86676.46406039534
1500638400,86676.46406039534
1500642000,81426.46406039536
1500645600,81426.46406039536
1500649200,81426.46406039536
1500652800,81861.46406039534
1500656400,98494.5653523587
1500660000,154908.7377952492
1500663600,180407.42148791614
1500667200,204850.83017852568
1500670800,194379.22657316536
1500674400,139013.55296839267
1500678000,80364.01089948168
1500681600,58652.07940025767
1500685200,58652.07940025767
1500688800,40409.67910345767
1500692400,40409.67910345767
1500696000,40409.67910345767
1500699600,40409.67910345767
1500703200,91422.72021384301
1500706800,117963.08986755606
1500710400,159649.563611355
1500714000,135770.49016435607
1500717600,100822.39616216446
1500721200,91425.85421391595
1500724800,91425.85421391595
1500728400,86175.85421391595
1500732000,86175.85421391595
1500735600,86175.85421391595
1500739200,86610.85421391595
1500742800,95925.39093741543
1500746400,164821.0425897952
1500750000,176482.79478323815
1500753600,187793.3036617732
1500757200,190454.59986848736
1500760800,148925.85776293866
1500764400,84769.47969705766
1500768000,68634.22570160267
1500771600,68634.22570160267
1500775200,50391.82540480267
1500778800,50391.82540480267
1500782400,50391.82540480267
1500786000,50391.82540480267
1500789600,91422.72021384301
1500793200,127945.23616890106
1500796800,159649.563611355
1500800400,125788.34386301108
1500804000,100822.39616216446
1500807600,96416.92736458845
1500811200,96416.92736458845
1500814800,81184.78106324346
1500818400,81184.78106324346
1500822000,81184.78106324346
1500825600,81619.78106324346
1500829200,90934.31778674293
1500832800,154838.8962884502
1500836400,176482.79478323815
1500840000,197775.4499631182
1500843600,180472.45356714237
1500847200,138943.71146159366
1500850800,84769.47969705766
1500854400,56449.34500146967
1500858000,48704.85385231217
1500861600,40409.67910345767
1500865200,40409.67910345767
1500868800,40409.67910345767
1500872400,56449.34500146967
1500876000,124347.28696799208
1500879600,164816.7099127
1500883200,121771.12998609993
1500886800,116521.12998609993
1500890400,86676.46406039534
1500894000,86676.46406039534
1500897600,86676.46406039534
1500901200,81426.46406039536
1500904800,81426.46406039536
1500908400,81426.46406039536
1500912000,81861.46406039534
1500915600,98494.5653523587
1500919200,154908.7377952492
1500922800,180407.42148791614
1500926400,204850.83017852568
1500930000,194379.22657316536
1500933600,139013.55296839267
1500937200,80364.01089948168
1500940800,56449.34500146967
1500944400,48704.85385231217
1500948000,40409.67910345767
1500951600,40409.67910345767
1500955200,40409.67910345767
1500958800,56449.34500146967
1500962400,124347.28696799208
1500966000,164816.7099127
1500969600,121771.12998609993
1500973200,116521.12998609993
1500976800,86676.46406039534
1500980400,86676.46406039534
1500984000,86676.46406039534
1500987600,81426.46406039536
1500991200,81426.46406039536
1500994800,81426.46406039536
1500998400,81861.46406039534
1501002000,98494.5653523587
1501005600,154908.7377952492
1501009200,180407.42148791614
1501012800,204850.83017852568
1501016400,194379.22657316536
1501020000,139013.55296839267
1501023600,80364.01089948168
1501027200,56449.34500146967
1501030800,48704.85385231217
1501034400,40409.67910345767
1501038000,40409.67910345767
1501041600,40409.67910345767
1501045200,56449.34500146967
1501048800,124347.28696799208
1501052400,164816.7099127
1501056000,121771.12998609993
1501059600,116521.12998609993
1501063200,86676.46406039534
1501066800,86676.46406039534
1501070400,86676.46406039534
1501074000,81426.46406039536
1501077600,81426.46406039536
1501081200,81426.46406039536
1501084800,81861.46406039534
1501088400,98494.5653523587
1501092000,154908.7377952492
1501095600,180407.42148791614
1501099200,204850.83017852568
1501102800,194379.22657316536
1501106400,139013.55296839267
1501110000,80364.01089948168
1501113600,56449.34500146967
1501117200,48704.85385231217
1501120800,40409.67910345767
1501124400,40409.67910345767
1501128000,40409.67910345767
1501131600,56449.34500146967
1501135200,124347.28696799208
1501138800,164816.7099127
1501142400,121771.12998609993
1501146000,116521.12998609993
1501149600,86676.46406039534
1501153200,86676.46406039534
1501156800,86676.46406039534
1501160400,81426.46406039536
1501164000,81426.46406039536
1501167600,81426.46406039536
1501171200,81861.46406039534
1501174800,98494.5653523587
1501178400,154908.7377952492
1501182000,180407.42148791614
1501185600,204850.83017852568
1501189200,194379.22657316536
1501192800,139013.55296839267
1501196400,80364.01089948168
1501200000,56449.34500146967
1501203600,48704.85385231217
1501207200,40409.67910345767
1501210800,40409.67910345767
1501214400,40409.67910345767
1501218000,56449.34500146967
1501221600,124347.28696799208
1501225200,164816.7099127
1501228800,121771.12998609993
1501232400,116521.12998609993
1501236000,86676.46406039534
1501239600,86676.46406039534
1501243200,86676.46406039534
1501246800,81426.46406039536
1501250400,81426.46406039536
1501254000,81426.46406039536
1501257600,81861.46406039534
1501261200,98494.5653523587
1501264800,154908.7377952492
1501268400,180407.42148791614
1501272000,204850.83017852568
1501275600,194379.22657316536
1501279200,139013.55296839267
1501282800,80364.01089948168
1501286400,58652.07940025767
1501290000,58652.07940025767
1501293600,40409.67910345767
1501297200,40409.67910345767
1501300800,40409.67910345767
1501304400,40409.67910345767
1501308000,91422.72021384301
1501311600,117963.08986755606
1501315200,159649.563611355
1501318800,135770.49016435607
1501322400,100822.39616216446
1501326000,91425.85421391595
1501329600,91425.85421391595
1501333200,86175.85421391595
1501336800,86175.85421391595
1501340400,86175.85421391595
1501344000,86610.85421391595
1501347600,95925.39093741543
1501351200,164821.0425897952
1501354800,176482.79478323815
1501358400,187793.3036617732
1501362000,190454.59986848736
1501365600,148925.85776293866
1501369200,84769.47969705766
1501372800,68634.22570160267
1501376400,68634.22570160267
1501380000,50391.82540480267
1501383600,50391.82540480267
1501387200,50391.82540480267
1501390800,50391.82540480267
1501394400,91422.72021384301
1501398000,127945.23616890106
1501401600,159649.563611355
1501405200,125788.34386301108
1501408800,100822.39616216446
1501412400,96416.92736458845
1501416000,96416.92736458845
1501419600,81184.78106324346
1501423200,81184.78106324346
1501426800,81184.78106324346
1501430400,81619.78106324346
1501434000,90934.31778674293
1501437600,154838.8962884502
1501441200,176482.79478323815
1501444800,197775.4499631182
1501448400,180472.45356714237
1501452000,138943.71146159366
1501455600,84769.47969705766
