timestamp,Power
1498867200,3706.2559178225
1498870800,3706.2559178225
1498874400,3706.2559178225
1498878000,3706.2559178225
1498881600,3706.2559178225
1498885200,3706.2559178225
1498888800,3706.2559178225
1498892400,7412.511835645
1498896000,17450.077856714997
1498899600,32506.42688832
1498903200,45169.047094814996
1498906800,45169.047094814996
1498910400,45169.047094814996
1498914000,45169.047094814996
1498917600,45169.047094814996
1498921200,45169.047094814996
1498924800,45169.047094814996
1498928400,45169.047094814996
1498932000,27487.643877784998
1498935600,17450.077856714997
1498939200,17450.077856714997
1498942800,7412.511835645
1498946400,3706.2559178225
1498950000,3706.2559178225
1498953600,4304.6881241
1498957200,4304.6881241
1498960800,4304.6881241
1498964400,4304.6881241
1498968000,4304.6881241
1498971600,4304.6881241
1498975200,4304.6881241
1498978800,12431.29484618
1498982400,27487.643877784998
1498986000,45169.047094814996
1498989600,45169.047094814996
1498993200,45169.047094814996
1498996800,45169.047094814996
1499000400,45169.047094814996
1499004000,45169.047094814996
1499007600,45169.047094814996
1499011200,45169.047094814996
1499014800,45169.047094814996
1499018400,32506.42688832
1499022000,32506.42688832
1499025600,27487.643877784998
1499029200,12431.29484618
1499032800,4304.6881241
1499036400,4304.6881241
1499040000,4304.6881241
1499043600,4304.6881241
1499047200,4304.6881241
1499050800,4304.6881241
1499054400,4304.6881241
1499058000,4304.6881241
1499061600,4304.6881241
1499065200,12431.29484618
1499068800,27487.643877784998
1499072400,45169.047094814996
1499076000,45169.047094814996
1499079600,45169.047094814996
1499083200,45169.047094814996
1499086800,45169.047094814996
1499090400,45169.047094814996
1499094000,45169.047094814996
1499097600,45169.047094814996
1499101200,45169.047094814996
1499104800,32506.42688832
1499108400,32506.42688832
1499112000,27487.643877784998
1499115600,12431.29484618
1499119200,4304.6881241
1499122800,4304.6881241
1499126400,4304.6881241
1499130000,4304.6881241
1499133600,4304.6881241
1499137200,4304.6881241
1499140800,4304.6881241
1499144400,4304.6881241
1499148000,4304.6881241
1499151600,12431.29484618
1499155200,27487.643877784998
1499158800,45169.047094814996
1499162400,45169.047094814996
1499166000,45169.047094814996
1499169600,45169.047094814996
1499173200,45169.047094814996
1499176800,45169.047094814996
1499180400,45169.047094814996
1499184000,45169.047094814996
1499187600,45169.047094814996
1499191200,32506.42688832
1499194800,32506.42688832
1499198400,27487.643877784998
1499202000,12431.29484618
1499205600,4304.6881241
1499209200,4304.6881241
1499212800,4304.6881241
1499216400,4304.6881241
1499220000,4304.6881241
1499223600,4304.6881241
1499227200,4304.6881241
1499230800,4304.6881241
1499234400,4304.6881241
1499238000,12431.29484618
1499241600,27487.643877784998
1499245200,45169.047094814996
1499248800,45169.047094814996
1499252400,45169.047094814996
1499256000,45169.047094814996
1499259600,45169.047094814996
1499263200,45169.047094814996
1499266800,45169.047094814996
1499270400,45169.047094814996
1499274000,45169.047094814996
1499277600,32506.42688832
1499281200,32506.42688832
1499284800,27487.643877784998
1499288400,12431.29484618
1499292000,4304.6881241
1499295600,4304.6881241
1499299200,4304.6881241
1499302800,4304.6881241
1499306400,4304.6881241
1499310000,4304.6881241
1499313600,4304.6881241
1499317200,4304.6881241
1499320800,4304.6881241
1499324400,12431.29484618
1499328000,27487.643877784998
1499331600,45169.047094814996
1499335200,45169.047094814996
1499338800,45169.047094814996
1499342400,45169.047094814996
1499346000,45169.047094814996
1499349600,45169.047094814996
1499353200,45169.047094814996
1499356800,45169.047094814996
1499360400,45169.047094814996
1499364000,32506.42688832
1499367600,32506.42688832
1499371200,27487.643877784998
1499374800,12431.29484618
1499378400,4304.6881241
1499382000,4304.6881241
1499385600,4304.6881241
1499389200,4304.6881241
1499392800,4304.6881241
1499396400,4304.6881241
1499400000,4304.6881241
1499403600,4304.6881241
1499407200,4304.6881241
1499410800,12431.29484618
1499414400,27487.643877784998
1499418000,45169.047094814996
1499421600,45169.047094814996
1499425200,45169.047094814996
1499428800,45169.047094814996
1499432400,45169.047094814996
1499436000,45169.047094814996
1499439600,45169.047094814996
1499443200,45169.047094814996
1499446800,45169.047094814996
1499450400,32506.42688832
1499454000,32506.42688832
1499457600,27487.643877784998
1499461200,12431.29484618
1499464800,4304.6881241
1499468400,4304.6881241
1499472000,3706.2559178225
1499475600,3706.2559178225
1499479200,3706.2559178225
1499482800,3706.2559178225
1499486400,3706.2559178225
1499490000,3706.2559178225
1499493600,3706.2559178225
1499497200,7412.511835645
1499500800,17450.077856714997
1499504400,32506.42688832
1499508000,45169.047094814996
1499511600,45169.047094814996
1499515200,45169.047094814996
1499518800,45169.047094814996
1499522400,45169.047094814996
1499526000,45169.047094814996
1499529600,45169.047094814996
1499533200,45169.047094814996
1499536800,27487.643877784998
1499540400,17450.077856714997
1499544000,17450.077856714997
1499547600,7412.511835645
1499551200,3706.2559178225
1499554800,3706.2559178225
1499558400,4304.6881241
1499562000,4304.6881241
1499565600,4304.6881241
1499569200,4304.6881241
1499572800,4304.6881241
1499576400,4304.6881241
1499580000,4304.6881241
1499583600,12431.29484618
1499587200,27487.643877784998
1499590800,45169.047094814996
1499594400,45169.047094814996
1499598000,45169.047094814996
1499601600,45169.047094814996
1499605200,45169.047094814996
1499608800,45169.047094814996
1499612400,45169.047094814996
1499616000,45169.047094814996
1499619600,45169.047094814996
1499623200,32506.42688832
1499626800,32506.42688832
1499630400,27487.643877784998
1499634000,12431.29484618
1499637600,4304.6881241
1499641200,4304.6881241
1499644800,4304.6881241
1499648400,4304.6881241
1499652000,4304.6881241
1499655600,4304.6881241
1499659200,4304.6881241
1499662800,4304.6881241
1499666400,4304.6881241
1499670000,12431.29484618
1499673600,27487.643877784998
1499677200,45169.047094814996
1499680800,45169.047094814996
1499684400,45169.047094814996
1499688000,45169.047094814996
1499691600,45169.047094814996
1499695200,45169.047094814996
1499698800,45169.047094814996
1499702400,45169.047094814996
1499706000,45169.047094814996
1499709600,32506.42688832
1499713200,32506.42688832
1499716800,27487.643877784998
1499720400,12431.29484618
1499724000,4304.6881241
1499727600,4304.6881241
1499731200,4304.6881241
1499734800,4304.6881241
1499738400,4304.6881241
1499742000,4304.6881241
1499745600,4304.6881241
1499749200,4304.6881241
1499752800,4304.6881241
1499756400,12431.29484618
1499760000,27487.643877784998
1499763600,45169.047094814996
1499767200,45169.047094814996
1499770800,45169.047094814996
1499774400,45169.047094814996
1499778000,45169.047094814996
1499781600,45169.047094814996
1499785200,45169.047094814996
1499788800,45169.047094814996
1499792400,45169.047094814996
1499796000,32506.42688832
1499799600,32506.42688832
1499803200,27487.643877784998
1499806800,12431.29484618
1499810400,4304.6881241
1499814000,4304.6881241
1499817600,4304.6881241
1499821200,4304.6881241
1499824800,4304.6881241
1499828400,4304.6881241
1499832000,4304.6881241
1499835600,4304.6881241
1499839200,4304.6881241
1499842800,12431.29484618
1499846400,27487.643877784998
1499850000,45169.047094814996
1499853600,45169.047094814996
1499857200,45169.047094814996
1499860800,45169.047094814996
1499864400,45169.047094814996
1499868000,45169.047094814996
1499871600,45169.047094814996
1499875200,45169.047094814996
1499878800,45169.047094814996
1499882400,32506.42688832
1499886000,32506.42688832
1499889600,27487.643877784998
1499893200,12431.29484618
1499896800,4304.6881241
1499900400,4304.6881241
1499904000,4304.6881241
1499907600,4304.6881241
1499911200,4304.6881241
1499914800,4304.6881241
1499918400,4304.6881241
1499922000,4304.6881241
1499925600,4304.6881241
1499929200,12431.29484618
1499932800,27487.643877784998
1499936400,45169.047094814996
1499940000,45169.047094814996
1499943600,45169.047094814996
1499947200,45169.047094814996
1499950800,45169.047094814996
1499954400,45169.047094814996
1499958000,45169.047094814996
1499961600,45169.047094814996
1499965200,45169.047094814996
1499968800,32506.42688832
1499972400,32506.42688832
1499976000,27487.643877784998
1499979600,12431.29484618
1499983200,4304.6881241
1499986800,4304.6881241
1499990400,4304.6881241
1499994000,4304.6881241
1499997600,4304.6881241
1500001200,4304.6881241
1500004800,4304.6881241
1500008400,4304.6881241
1500012000,4304.6881241
1500015600,12431.29484618
1500019200,27487.643877784998
1500022800,45169.047094814996
1500026400,45169.047094814996
1500030000,45169.047094814996
1500033600,45169.047094814996
1500037200,45169.047094814996
1500040800,45169.047094814996
1500044400,45169.047094814996
1500048000,45169.047094814996
1500051600,45169.047094814996
1500055200,32506.42688832
1500058800,32506.42688832
1500062400,27487.643877784998
1500066000,12431.29484618
1500069600,4304.6881241
1500073200,4304.6881241
1500076800,3706.2559178225
1500080400,3706.2559178225
1500084000,3706.2559178225
1500087600,3706.2559178225
1500091200,3706.2559178225
1500094800,3706.2559178225
1500098400,3706.2559178225
1500102000,7412.511835645
1500105600,17450.077856714997
1500109200,32506.42688832
1500112800,45169.047094814996
1500116400,45169.047094814996
1500120000,45169.047094814996
1500123600,45169.047094814996
1500127200,45169.047094814996
1500130800,45169.047094814996
1500134400,45169.047094814996
1500138000,45169.047094814996
1500141600,27487.643877784998
1500145200,17450.077856714997
1500148800,17450.077856714997
1500152400,7412.511835645
1500156000,3706.2559178225
1500159600,3706.2559178225
1500163200,4304.6881241
1500166800,4304.6881241
1500170400,4304.6881241
1500174000,4304.6881241
1500177600,4304.6881241
1500181200,4304.6881241
1500184800,4304.6881241
1500188400,12431.29484618
1500192000,27487.643877784998
1500195600,45169.047094814996
1500199200,45169.047094814996
1500202800,45169.047094814996
1500206400,45169.047094814996
1500210000,45169.047094814996
1500213600,45169.047094814996
1500217200,45169.047094814996
1500220800,45169.047094814996
1500224400,45169.047094814996
1500228000,32506.42688832
1500231600,32506.42688832
1500235200,27487.643877784998
1500238800,12431.29484618
1500242400,4304.6881241
1500246000,4304.6881241
1500249600,4304.6881241
1500253200,4304.6881241
1500256800,4304.6881241
1500260400,4304.6881241
1500264000,4304.6881241
1500267600,4304.6881241
1500271200,4304.6881241
1500274800,12431.29484618
1500278400,27487.643877784998
1500282000,45169.047094814996
1500285600,45169.047094814996
1500289200,45169.047094814996
1500292800,45169.047094814996
1500296400,45169.047094814996
1500300000,45169.047094814996
1500303600,45169.047094814996
1500307200,45169.047094814996
1500310800,45169.047094814996
1500314400,32506.42688832
1500318000,32506.42688832
1500321600,27487.643877784998
1500325200,12431.29484618
1500328800,4304.6881241
1500332400,4304.6881241
1500336000,4304.6881241
1500339600,4304.6881241
1500343200,4304.6881241
1500346800,4304.6881241
1500350400,4304.6881241
1500354000,4304.6881241
1500357600,4304.6881241
1500361200,12431.29484618
1500364800,27487.643877784998
1500368400,45169.047094814996
1500372000,45169.047094814996
1500375600,45169.047094814996
1500379200,45169.047094814996
1500382800,45169.047094814996
1500386400,45169.047094814996
1500390000,45169.047094814996
1500393600,45169.047094814996
1500397200,45169.047094814996
1500400800,32506.42688832
1500404400,32506.42688832
1500408000,27487.643877784998
1500411600,12431.29484618
1500415200,4304.6881241
1500418800,4304.6881241
1500422400,4304.6881241
1500426000,4304.6881241
1500429600,4304.6881241
1500433200,4304.6881241
1500436800,4304.6881241
1500440400,4304.6881241
1500444000,4304.6881241
1500447600,12431.29484618
1500451200,27487.643877784998
1500454800,45169.047094814996
1500458400,45169.047094814996
1500462000,45169.047094814996
1500465600,45169.047094814996
1500469200,45169.047094814996
1500472800,45169.047094814996
1500476400,45169.047094814996
1500480000,45169.047094814996
1500483600,45169.047094814996
1500487200,32506.42688832
1500490800,32506.42688832
1500494400,27487.643877784998
1500498000,12431.29484618
1500501600,4304.6881241
1500505200,4304.6881241
1500508800,4304.6881241
1500512400,4304.6881241
1500516000,4304.6881241
1500519600,4304.6881241
1500523200,4304.6881241
1500526800,4304.6881241
1500530400,4304.6881241
1500534000,12431.29484618
1500537600,27487.643877784998
1500541200,45169.047094814996
1500544800,45169.047094814996
1500548400,45169.047094814996
1500552000,45169.047094814996
1500555600,45169.047094814996
1500559200,45169.047094814996
1500562800,45169.047094814996
1500566400,45169.047094814996
1500570000,45169.047094814996
1500573600,32506.42688832
1500577200,32506.42688832
1500580800,27487.643877784998
1500584400,12431.29484618
1500588000,4304.6881241
1500591600,4304.6881241
1500595200,4304.6881241
1500598800,4304.6881241
1500602400,4304.6881241
1500606000,4304.6881241
1500609600,4304.6881241
1500613200,4304.6881241
1500616800,4304.6881241
1500620400,12431.29484618
1500624000,27487.643877784998
1500627600,45169.047094814996
1500631200,45169.047094814996
1500634800,45169.047094814996
1500638400,45169.047094814996
1500642000,45169.047094814996
1500645600,45169.047094814996
1500649200,45169.047094814996
1500652800,45169.047094814996
1500656400,45169.047094814996
1500660000,32506.42688832
1500663600,32506.42688832
1500667200,27487.643877784998
1500670800,12431.29484618
1500674400,4304.6881241
1500678000,4304.6881241
1500681600,3706.2559178225
1500685200,3706.2559178225
1500688800,3706.2559178225
1500692400,3706.2559178225
1500696000,3706.2559178225
1500699600,3706.2559178225
1500703200,3706.2559178225
1500706800,7412.511835645
1500710400,17450.077856714997
1500714000,32506.42688832
1500717600,45169.047094814996
1500721200,45169.047094814996
1500724800,45169.047094814996
1500728400,45169.047094814996
1500732000,45169.047094814996
1500735600,45169.047094814996
1500739200,45169.047094814996
1500742800,45169.047094814996
1500746400,27487.643877784998
1500750000,17450.077856714997
1500753600,17450.077856714997
1500757200,7412.511835645
1500760800,3706.2559178225
1500764400,3706.2559178225
1500768000,4304.6881241
1500771600,4304.6881241
1500775200,4304.6881241
1500778800,4304.6881241
1500782400,4304.6881241
1500786000,4304.6881241
1500789600,4304.6881241
1500793200,12431.29484618
1500796800,27487.643877784998
1500800400,45169.047094814996
1500804000,45169.047094814996
1500807600,45169.047094814996
1500811200,45169.047094814996
1500814800,45169.047094814996
1500818400,45169.047094814996
1500822000,45169.047094814996
1500825600,45169.047094814996
1500829200,45169.047094814996
1500832800,32506.42688832
1500836400,32506.42688832
1500840000,27487.643877784998
1500843600,12431.29484618
1500847200,4304.6881241
1500850800,4304.6881241
1500854400,4304.6881241
1500858000,4304.6881241
1500861600,4304.6881241
1500865200,4304.6881241
1500868800,4304.6881241
1500872400,4304.6881241
1500876000,4304.6881241
1500879600,12431.29484618
1500883200,27487.643877784998
1500886800,45169.047094814996
1500890400,45169.047094814996
1500894000,45169.047094814996
1500897600,45169.047094814996
1500901200,45169.047094814996
1500904800,45169.047094814996
1500908400,45169.047094814996
1500912000,45169.047094814996
1500915600,45169.047094814996
1500919200,32506.42688832
1500922800,32506.42688832
1500926400,27487.643877784998
1500930000,12431.29484618
1500933600,4304.6881241
1500937200,4304.6881241
1500940800,4304.6881241
1500944400,4304.6881241
1500948000,4304.6881241
1500951600,4304.6881241
1500955200,4304.6881241
1500958800,4304.6881241
1500962400,4304.6881241
1500966000,12431.29484618
1500969600,27487.643877784998
1500973200,45169.047094814996
1500976800,45169.047094814996
1500980400,45169.047094814996
1500984000,45169.047094814996
1500987600,45169.047094814996
1500991200,45169.047094814996
1500994800,45169.047094814996
1500998400,45169.047094814996
1501002000,45169.047094814996
1501005600,32506.42688832
1501009200,32506.42688832
1501012800,27487.643877784998
1501016400,12431.29484618
1501020000,4304.6881241
1501023600,4304.6881241
1501027200,4304.6881241
1501030800,4304.6881241
1501034400,4304.6881241
1501038000,4304.6881241
1501041600,4304.6881241
1501045200,4304.6881241
1501048800,4304.6881241
1501052400,12431.29484618
1501056000,27487.643877784998
1501059600,45169.047094814996
1501063200,45169.047094814996
1501066800,45169.047094814996
1501070400,45169.047094814996
1501074000,45169.047094814996
1501077600,45169.047094814996
1501081200,45169.047094814996
1501084800,45169.047094814996
1501088400,45169.047094814996
1501092000,32506.42688832
1501095600,32506.42688832
1501099200,27487.643877784998
1501102800,12431.29484618
1501106400,4304.6881241
1501110000,4304.6881241
1501113600,4304.6881241
1501117200,4304.6881241
1501120800,4304.6881241
1501124400,4304.6881241
1501128000,4304.6881241
1501131600,4304.6881241
1501135200,4304.6881241
1501138800,12431.29484618
1501142400,27487.643877784998
1501146000,45169.047094814996
1501149600,45169.047094814996
1501153200,45169.047094814996
1501156800,45169.047094814996
1501160400,45169.047094814996
1501164000,45169.047094814996
1501167600,45169.047094814996
1501171200,45169.047094814996
1501174800,45169.047094814996
1501178400,32506.42688832
1501182000,32506.42688832
1501185600,27487.643877784998
1501189200,12431.29484618
1501192800,4304.6881241
1501196400,4304.6881241
1501200000,4304.6881241
1501203600,4304.6881241
1501207200,4304.6881241
1501210800,4304.6881241
1501214400,4304.6881241
1501218000,4304.6881241
1501221600,4304.6881241
1501225200,12431.29484618
1501228800,27487.643877784998
1501232400,45169.047094814996
1501236000,45169.047094814996
1501239600,45169.047094814996
1501243200,45169.047094814996
1501246800,45169.047094814996
1501250400,45169.047094814996
1501254000,45169.047094814996
1501257600,45169.047094814996
1501261200,45169.047094814996
1501264800,32506.42688832
1501268400,32506.42688832
1501272000,27487.643877784998
1501275600,12431.29484618
1501279200,4304.6881241
1501282800,4304.6881241
1501286400,3706.2559178225
1501290000,3706.2559178225
1501293600,3706.2559178225
1501297200,3706.2559178225
1501300800,3706.2559178225
1501304400,3706.2559178225
1501308000,3706.2559178225
1501311600,7412.511835645
1501315200,17450.077856714997
1501318800,32506.42688832
1501322400,45169.047094814996
1501326000,45169.047094814996
1501329600,45169.047094814996
1501333200,45169.047094814996
1501336800,45169.047094814996
1501340400,45169.047094814996
1501344000,45169.047094814996
1501347600,45169.047094814996
1501351200,27487.643877784998
1501354800,17450.077856714997
1501358400,17450.077856714997
1501362000,7412.511835645
1501365600,3706.2559178225
1501369200,3706.2559178225
1501372800,4304.6881241
1501376400,4304.6881241
1501380000,4304.6881241
1501383600,4304.6881241
1501387200,4304.6881241
1501390800,4304.6881241
1501394400,4304.6881241
1501398000,12431.29484618
1501401600,27487.643877784998
1501405200,45169.047094814996
1501408800,45169.047094814996
1501412400,45169.047094814996
1501416000,45169.047094814996
1501419600,45169.047094814996
1501423200,45169.047094814996
1501426800,45169.047094814996
1501430400,45169.047094814996
1501434000,45169.047094814996
1501437600,32506.42688832
1501441200,32506.42688832
1501444800,27487.643877784998
1501448400,12431.29484618
1501452000,4304.6881241
1501455600,4304.6881241
