timestamp,customer_energy_charge,customer_demand_charge_season
1498867200,0.13793,15.000000000000002
1498870800,0.13793,15.000000000000002
1498874400,0.13793,15.000000000000002
1498878000,0.13793,15.000000000000002
1498881600,0.13793,15.000000000000002
1498885200,0.13793,15.000000000000002
1498888800,0.13793,15.000000000000002
1498892400,0.13793,15.000000000000002
1498896000,0.13793,15.000000000000002
1498899600,0.13793,15.000000000000002
1498903200,0.13793,15.000000000000002
1498906800,0.13793,15.000000000000002
1498910400,0.13793,15.000000000000002
1498914000,0.13793,15.000000000000002
1498917600,0.13793,15.000000000000002
1498921200,0.13793,15.000000000000002
1498924800,0.13793,15.000000000000002
1498928400,0.13793,15.000000000000002
1498932000,0.13793,15.000000000000002
1498935600,0.13793,15.000000000000002
1498939200,0.13793,15.000000000000002
1498942800,0.13793,15.000000000000002
1498946400,0.13793,15.000000000000002
1498950000,0.13793,15.000000000000002
1498953600,0.13793,15.000000000000002
1498957200,0.13793,15.000000000000002
1498960800,0.13793,15.000000000000002
1498964400,0.13793,15.000000000000002
1498968000,0.13793,15.000000000000002
1498971600,0.13793,15.000000000000002
1498975200,0.13793,15.000000000000002
1498978800,0.13793,15.000000000000002
1498982400,0.13793,15.000000000000002
1498986000,0.13793,15.000000000000002
1498989600,0.13793,15.000000000000002
1498993200,0.13793,15.000000000000002
1498996800,0.13793,15.000000000000002
1499000400,0.13793,15.000000000000002
1499004000,0.13793,15.000000000000002
1499007600,0.13793,15.000000000000002
1499011200,0.13793,15.000000000000002
1499014800,0.13793,15.000000000000002
1499018400,0.13793,15.000000000000002
1499022000,0.13793,15.000000000000002
1499025600,0.13793,15.000000000000002
1499029200,0.13793,15.000000000000002
1499032800,0.13793,15.000000000000002
1499036400,0.13793,15.000000000000002
1499040000,0.13793,15.000000000000002
1499043600,0.13793,15.000000000000002
1499047200,0.13793,15.000000000000002
1499050800,0.13793,15.000000000000002
1499054400,0.13793,15.000000000000002
1499058000,0.13793,15.000000000000002
1499061600,0.13793,15.000000000000002
1499065200,0.13793,15.000000000000002
1499068800,0.166,15.000000000000002
1499072400,0.166,15.000000000000002
1499076000,0.166,15.000000000000002
1499079600,0.166,15.000000000000002
1499083200,0.22113,15.000000000000002
1499086800,0.22113,15.000000000000002
1499090400,0.22113,15.000000000000002
1499094000,0.22113,15.000000000000002
1499097600,0.22113,15.000000000000002
1499101200,0.22113,15.000000000000002
1499104800,0.166,15.000000000000002
1499108400,0.166,15.000000000000002
1499112000,0.166,15.000000000000002
1499115600,0.13793,15.000000000000002
1499119200,0.13793,15.000000000000002
1499122800,0.13793,15.000000000000002
1499126400,0.13793,15.000000000000002
1499130000,0.13793,15.000000000000002
1499133600,0.13793,15.000000000000002
1499137200,0.13793,15.000000000000002
1499140800,0.13793,15.000000000000002
1499144400,0.13793,15.000000000000002
1499148000,0.13793,15.000000000000002
1499151600,0.13793,15.000000000000002
1499155200,0.166,15.000000000000002
1499158800,0.166,15.000000000000002
1499162400,0.166,15.000000000000002
1499166000,0.166,15.000000000000002
1499169600,0.22113,15.000000000000002
1499173200,0.22113,15.000000000000002
1499176800,0.22113,15.000000000000002
1499180400,0.22113,15.000000000000002
1499184000,0.22113,15.000000000000002
1499187600,0.22113,15.000000000000002
1499191200,0.166,15.000000000000002
1499194800,0.166,15.000000000000002
1499198400,0.166,15.000000000000002
1499202000,0.13793,15.000000000000002
1499205600,0.13793,15.000000000000002
1499209200,0.13793,15.000000000000002
1499212800,0.13793,15.000000000000002
1499216400,0.13793,15.000000000000002
1499220000,0.13793,15.000000000000002
1499223600,0.13793,15.000000000000002
1499227200,0.13793,15.000000000000002
1499230800,0.13793,15.000000000000002
1499234400,0.13793,15.000000000000002
1499238000,0.13793,15.000000000000002
1499241600,0.166,15.000000000000002
1499245200,0.166,15.000000000000002
1499248800,0.166,15.000000000000002
1499252400,0.166,15.000000000000002
1499256000,0.22113,15.000000000000002
1499259600,0.22113,15.000000000000002
1499263200,0.22113,15.000000000000002
1499266800,0.22113,15.000000000000002
1499270400,0.22113,15.000000000000002
1499274000,0.22113,15.000000000000002
1499277600,0.166,15.000000000000002
1499281200,0.166,15.000000000000002
1499284800,0.166,15.000000000000002
1499288400,0.13793,15.000000000000002
1499292000,0.13793,15.000000000000002
1499295600,0.13793,15.000000000000002
1499299200,0.13793,15.000000000000002
1499302800,0.13793,15.000000000000002
1499306400,0.13793,15.000000000000002
1499310000,0.13793,15.000000000000002
1499313600,0.13793,15.000000000000002
1499317200,0.13793,15.000000000000002
1499320800,0.13793,15.000000000000002
1499324400,0.13793,15.000000000000002
1499328000,0.166,15.000000000000002
1499331600,0.166,15.000000000000002
1499335200,0.166,15.000000000000002
1499338800,0.166,15.000000000000002
1499342400,0.22113,15.000000000000002
1499346000,0.22113,15.000000000000002
1499349600,0.22113,15.000000000000002
1499353200,0.22113,15.000000000000002
1499356800,0.22113,15.000000000000002
1499360400,0.22113,15.000000000000002
1499364000,0.166,15.000000000000002
1499367600,0.166,15.000000000000002
1499371200,0.166,15.000000000000002
1499374800,0.13793,15.000000000000002
1499378400,0.13793,15.000000000000002
1499382000,0.13793,15.000000000000002
1499385600,0.13793,15.000000000000002
1499389200,0.13793,15.000000000000002
1499392800,0.13793,15.000000000000002
1499396400,0.13793,15.000000000000002
1499400000,0.13793,15.000000000000002
1499403600,0.13793,15.000000000000002
1499407200,0.13793,15.000000000000002
1499410800,0.13793,15.000000000000002
1499414400,0.166,15.000000000000002
1499418000,0.166,15.000000000000002
1499421600,0.166,15.000000000000002
1499425200,0.166,15.000000000000002
1499428800,0.22113,15.000000000000002
1499432400,0.22113,15.000000000000002
1499436000,0.22113,15.000000000000002
1499439600,0.22113,15.000000000000002
1499443200,0.22113,15.000000000000002
1499446800,0.22113,15.000000000000002
1499450400,0.166,15.000000000000002
1499454000,0.166,15.000000000000002
1499457600,0.166,15.000000000000002
1499461200,0.13793,15.000000000000002
1499464800,0.13793,15.000000000000002
1499468400,0.13793,15.000000000000002
1499472000,0.13793,15.000000000000002
1499475600,0.13793,15.000000000000002
1499479200,0.13793,15.000000000000002
1499482800,0.13793,15.000000000000002
1499486400,0.13793,15.000000000000002
1499490000,0.13793,15.000000000000002
1499493600,0.13793,15.000000000000002
1499497200,0.13793,15.000000000000002
1499500800,0.13793,15.000000000000002
1499504400,0.13793,15.000000000000002
1499508000,0.13793,15.000000000000002
1499511600,0.13793,15.000000000000002
1499515200,0.13793,15.000000000000002
1499518800,0.13793,15.000000000000002
1499522400,1.03793,15.000000000000002
1499526000,1.03793,15.000000000000002
1499529600,1.03793,15.000000000000002
1499533200,1.03793,15.000000000000002
1499536800,0.13793,15.000000000000002
1499540400,0.13793,15.000000000000002
1499544000,0.13793,15.000000000000002
1499547600,0.13793,15.000000000000002
1499551200,0.13793,15.000000000000002
1499554800,0.13793,15.000000000000002
1499558400,0.13793,15.000000000000002
1499562000,0.13793,15.000000000000002
1499565600,0.13793,15.000000000000002
1499569200,0.13793,15.000000000000002
1499572800,0.13793,15.000000000000002
1499576400,0.13793,15.000000000000002
1499580000,0.13793,15.000000000000002
1499583600,0.13793,15.000000000000002
1499587200,0.13793,15.000000000000002
1499590800,0.13793,15.000000000000002
1499594400,0.13793,15.000000000000002
1499598000,0.13793,15.000000000000002
1499601600,0.13793,15.000000000000002
1499605200,0.13793,15.000000000000002
1499608800,0.13793,15.000000000000002
1499612400,0.13793,15.000000000000002
1499616000,0.13793,15.000000000000002
1499619600,0.13793,15.000000000000002
1499623200,0.13793,15.000000000000002
1499626800,0.13793,15.000000000000002
1499630400,0.13793,15.000000000000002
1499634000,0.13793,15.000000000000002
1499637600,0.13793,15.000000000000002
1499641200,0.13793,15.000000000000002
1499644800,0.13793,15.000000000000002
1499648400,0.13793,15.000000000000002
1499652000,0.13793,15.000000000000002
1499655600,0.13793,15.000000000000002
1499659200,0.13793,15.000000000000002
1499662800,0.13793,15.000000000000002
1499666400,0.13793,15.000000000000002
1499670000,0.13793,15.000000000000002
1499673600,0.166,15.000000000000002
1499677200,0.166,15.000000000000002
1499680800,0.166,15.000000000000002
1499684400,0.166,15.000000000000002
1499688000,0.22113,15.000000000000002
1499691600,0.22113,15.000000000000002
1499695200,0.22113,15.000000000000002
1499698800,0.22113,15.000000000000002
1499702400,0.22113,15.000000000000002
1499706000,0.22113,15.000000000000002
1499709600,0.166,15.000000000000002
1499713200,0.166,15.000000000000002
1499716800,0.166,15.000000000000002
1499720400,0.13793,15.000000000000002
1499724000,0.13793,15.000000000000002
1499727600,0.13793,15.000000000000002
1499731200,0.13793,15.000000000000002
1499734800,0.13793,15.000000000000002
1499738400,0.13793,15.000000000000002
1499742000,0.13793,15.000000000000002
1499745600,0.13793,15.000000000000002
1499749200,0.13793,15.000000000000002
1499752800,0.13793,15.000000000000002
1499756400,0.13793,15.000000000000002
1499760000,0.166,15.000000000000002
1499763600,0.166,15.000000000000002
1499767200,0.166,15.000000000000002
1499770800,0.166,15.000000000000002
1499774400,0.22113,15.000000000000002
1499778000,0.22113,15.000000000000002
1499781600,0.22113,15.000000000000002
1499785200,0.22113,15.000000000000002
1499788800,0.22113,15.000000000000002
1499792400,0.22113,15.000000000000002
1499796000,0.166,15.000000000000002
1499799600,0.166,15.000000000000002
1499803200,0.166,15.000000000000002
1499806800,0.13793,15.000000000000002
1499810400,0.13793,15.000000000000002
1499814000,0.13793,15.000000000000002
1499817600,0.13793,15.000000000000002
1499821200,0.13793,15.000000000000002
1499824800,0.13793,15.000000000000002
1499828400,0.13793,15.000000000000002
1499832000,0.13793,15.000000000000002
1499835600,0.13793,15.000000000000002
1499839200,0.13793,15.000000000000002
1499842800,0.13793,15.000000000000002
1499846400,0.166,15.000000000000002
1499850000,0.166,15.000000000000002
1499853600,0.166,15.000000000000002
1499857200,0.166,15.000000000000002
1499860800,0.22113,15.000000000000002
1499864400,0.22113,15.000000000000002
1499868000,0.22113,15.000000000000002
1499871600,0.22113,15.000000000000002
1499875200,0.22113,15.000000000000002
1499878800,0.22113,15.000000000000002
1499882400,0.166,15.000000000000002
1499886000,0.166,15.000000000000002
1499889600,0.166,15.000000000000002
1499893200,0.13793,15.000000000000002
1499896800,0.13793,15.000000000000002
1499900400,0.13793,15.000000000000002
1499904000,0.13793,15.000000000000002
1499907600,0.13793,15.000000000000002
1499911200,0.13793,15.000000000000002
1499914800,0.13793,15.000000000000002
1499918400,0.13793,15.000000000000002
1499922000,0.13793,15.000000000000002
1499925600,0.13793,15.000000000000002
1499929200,0.13793,15.000000000000002
1499932800,0.166,15.000000000000002
1499936400,0.166,15.000000000000002
1499940000,0.166,15.000000000000002
1499943600,0.166,15.000000000000002
1499947200,0.22113,15.000000000000002
1499950800,0.22113,15.000000000000002
1499954400,0.22113,15.000000000000002
1499958000,0.22113,15.000000000000002
1499961600,0.22113,15.000000000000002
1499965200,0.22113,15.000000000000002
1499968800,0.166,15.000000000000002
1499972400,0.166,15.000000000000002
1499976000,0.166,15.000000000000002
1499979600,0.13793,15.000000000000002
1499983200,0.13793,15.000000000000002
1499986800,0.13793,15.000000000000002
1499990400,0.13793,15.000000000000002
1499994000,0.13793,15.000000000000002
1499997600,0.13793,15.000000000000002
1500001200,0.13793,15.000000000000002
1500004800,0.13793,15.000000000000002
1500008400,0.13793,15.000000000000002
1500012000,0.13793,15.000000000000002
1500015600,0.13793,15.000000000000002
1500019200,0.166,15.000000000000002
1500022800,0.166,15.000000000000002
1500026400,0.166,15.000000000000002
1500030000,0.166,15.000000000000002
1500033600,0.22113,15.000000000000002
1500037200,0.22113,15.000000000000002
1500040800,0.22113,15.000000000000002
1500044400,0.22113,15.000000000000002
1500048000,0.22113,15.000000000000002
1500051600,0.22113,15.000000000000002
1500055200,0.166,15.000000000000002
1500058800,0.166,15.000000000000002
1500062400,0.166,15.000000000000002
1500066000,0.13793,15.000000000000002
1500069600,0.13793,15.000000000000002
1500073200,0.13793,15.000000000000002
1500076800,0.13793,15.000000000000002
1500080400,0.13793,15.000000000000002
1500084000,0.13793,15.000000000000002
1500087600,0.13793,15.000000000000002
1500091200,0.13793,15.000000000000002
1500094800,0.13793,15.000000000000002
1500098400,0.13793,15.000000000000002
1500102000,0.13793,15.000000000000002
1500105600,0.13793,15.000000000000002
1500109200,0.13793,15.000000000000002
1500112800,0.13793,15.000000000000002
1500116400,0.13793,15.000000000000002
1500120000,0.13793,15.000000000000002
1500123600,0.13793,15.000000000000002
1500127200,0.13793,15.000000000000002
1500130800,0.13793,15.000000000000002
1500134400,0.13793,15.000000000000002
1500138000,0.13793,15.000000000000002
1500141600,0.13793,15.000000000000002
1500145200,0.13793,15.000000000000002
1500148800,0.13793,15.000000000000002
1500152400,0.13793,15.000000000000002
1500156000,0.13793,15.000000000000002
1500159600,0.13793,15.000000000000002
1500163200,0.13793,15.000000000000002
1500166800,0.13793,15.000000000000002
1500170400,0.13793,15.000000000000002
1500174000,0.13793,15.000000000000002
1500177600,0.13793,15.000000000000002
1500181200,0.13793,15.000000000000002
1500184800,0.13793,15.000000000000002
1500188400,0.13793,15.000000000000002
1500192000,0.13793,15.000000000000002
1500195600,0.13793,15.000000000000002
1500199200,0.13793,15.000000000000002
1500202800,0.13793,15.000000000000002
1500206400,0.13793,15.000000000000002
1500210000,0.13793,15.000000000000002
1500213600,0.13793,15.000000000000002
1500217200,0.13793,15.000000000000002
1500220800,0.13793,15.000000000000002
1500224400,0.13793,15.000000000000002
1500228000,0.13793,15.000000000000002
1500231600,0.13793,15.000000000000002
1500235200,0.13793,15.000000000000002
1500238800,0.13793,15.000000000000002
1500242400,0.13793,15.000000000000002
1500246000,0.13793,15.000000000000002
1500249600,0.13793,15.000000000000002
1500253200,0.13793,15.000000000000002
1500256800,0.13793,15.000000000000002
1500260400,0.13793,15.000000000000002
1500264000,0.13793,15.000000000000002
1500267600,0.13793,15.000000000000002
1500271200,0.13793,15.000000000000002
1500274800,0.13793,15.000000000000002
1500278400,0.166,15.000000000000002
1500282000,0.166,15.000000000000002
1500285600,0.166,15.000000000000002
1500289200,0.166,15.000000000000002
1500292800,0.22113,15.000000000000002
1500296400,0.22113,15.000000000000002
1500300000,1.1211300000000002,15.000000000000002
1500303600,1.1211300000000002,15.000000000000002
1500307200,1.1211300000000002,15.000000000000002
1500310800,1.1211300000000002,15.000000000000002
1500314400,0.166,15.000000000000002
1500318000,0.166,15.000000000000002
1500321600,0.166,15.000000000000002
1500325200,0.13793,15.000000000000002
1500328800,0.13793,15.000000000000002
1500332400,0.13793,15.000000000000002
1500336000,0.13793,15.000000000000002
1500339600,0.13793,15.000000000000002
1500343200,0.13793,15.000000000000002
1500346800,0.13793,15.000000000000002
1500350400,0.13793,15.000000000000002
1500354000,0.13793,15.000000000000002
1500357600,0.13793,15.000000000000002
1500361200,0.13793,15.000000000000002
1500364800,0.166,15.000000000000002
1500368400,0.166,15.000000000000002
1500372000,0.166,15.000000000000002
1500375600,0.166,15.000000000000002
1500379200,0.22113,15.000000000000002
1500382800,0.22113,15.000000000000002
1500386400,0.22113,15.000000000000002
1500390000,0.22113,15.000000000000002
1500393600,0.22113,15.000000000000002
1500397200,0.22113,15.000000000000002
1500400800,0.166,15.000000000000002
1500404400,0.166,15.000000000000002
1500408000,0.166,15.000000000000002
1500411600,0.13793,15.000000000000002
1500415200,0.13793,15.000000000000002
1500418800,0.13793,15.000000000000002
1500422400,0.13793,15.000000000000002
1500426000,0.13793,15.000000000000002
1500429600,0.13793,15.000000000000002
1500433200,0.13793,15.000000000000002
1500436800,0.13793,15.000000000000002
1500440400,0.13793,15.000000000000002
1500444000,0.13793,15.000000000000002
1500447600,0.13793,15.000000000000002
1500451200,0.166,15.000000000000002
1500454800,0.166,15.000000000000002
1500458400,0.166,15.000000000000002
1500462000,0.166,15.000000000000002
1500465600,0.22113,15.000000000000002
1500469200,0.22113,15.000000000000002
1500472800,0.22113,15.000000000000002
1500476400,0.22113,15.000000000000002
1500480000,0.22113,15.000000000000002
1500483600,0.22113,15.000000000000002
1500487200,0.166,15.000000000000002
1500490800,0.166,15.000000000000002
1500494400,0.166,15.000000000000002
1500498000,0.13793,15.000000000000002
1500501600,0.13793,15.000000000000002
1500505200,0.13793,15.000000000000002
1500508800,0.13793,15.000000000000002
1500512400,0.13793,15.000000000000002
1500516000,0.13793,15.000000000000002
1500519600,0.13793,15.000000000000002
1500523200,0.13793,15.000000000000002
1500526800,0.13793,15.000000000000002
1500530400,0.13793,15.000000000000002
1500534000,0.13793,15.000000000000002
1500537600,0.166,15.000000000000002
1500541200,0.166,15.000000000000002
1500544800,0.166,15.000000000000002
1500548400,0.166,15.000000000000002
1500552000,0.22113,15.000000000000002
1500555600,0.22113,15.000000000000002
1500559200,0.22113,15.000000000000002
1500562800,0.22113,15.000000000000002
1500566400,0.22113,15.000000000000002
1500570000,0.22113,15.000000000000002
1500573600,0.166,15.000000000000002
1500577200,0.166,15.000000000000002
1500580800,0.166,15.000000000000002
1500584400,0.13793,15.000000000000002
1500588000,0.13793,15.000000000000002
1500591600,0.13793,15.000000000000002
1500595200,0.13793,15.000000000000002
1500598800,0.13793,15.000000000000002
1500602400,0.13793,15.000000000000002
1500606000,0.13793,15.000000000000002
1500609600,0.13793,15.000000000000002
1500613200,0.13793,15.000000000000002
1500616800,0.13793,15.000000000000002
1500620400,0.13793,15.000000000000002
1500624000,0.166,15.000000000000002
1500627600,0.166,15.000000000000002
1500631200,0.166,15.000000000000002
1500634800,0.166,15.000000000000002
1500638400,0.22113,15.000000000000002
1500642000,0.22113,15.000000000000002
1500645600,0.22113,15.000000000000002
1500649200,0.22113,15.000000000000002
1500652800,0.22113,15.000000000000002
1500656400,0.22113,15.000000000000002
1500660000,0.166,15.000000000000002
1500663600,0.166,15.000000000000002
1500667200,0.166,15.000000000000002
1500670800,0.13793,15.000000000000002
1500674400,0.13793,15.000000000000002
1500678000,0.13793,15.000000000000002
1500681600,0.13793,15.000000000000002
1500685200,0.13793,15.000000000000002
1500688800,0.13793,15.000000000000002
1500692400,0.13793,15.000000000000002
1500696000,0.13793,15.000000000000002
1500699600,0.13793,15.000000000000002
1500703200,0.13793,15.000000000000002
1500706800,0.13793,15.000000000000002
1500710400,0.13793,15.000000000000002
1500714000,0.13793,15.000000000000002
1500717600,0.13793,15.000000000000002
1500721200,0.13793,15.000000000000002
1500724800,0.13793,15.000000000000002
1500728400,0.13793,15.000000000000002
1500732000,0.13793,15.000000000000002
1500735600,0.13793,15.000000000000002
1500739200,0.13793,15.000000000000002
1500742800,0.13793,15.000000000000002
1500746400,0.13793,15.000000000000002
1500750000,0.13793,15.000000000000002
1500753600,0.13793,15.000000000000002
1500757200,0.13793,15.000000000000002
1500760800,0.13793,15.000000000000002
1500764400,0.13793,15.000000000000002
1500768000,0.13793,15.000000000000002
1500771600,0.13793,15.000000000000002
1500775200,0.13793,15.000000000000002
1500778800,0.13793,15.000000000000002
1500782400,0.13793,15.000000000000002
1500786000,0.13793,15.000000000000002
1500789600,0.13793,15.000000000000002
1500793200,0.13793,15.000000000000002
1500796800,0.13793,15.000000000000002
1500800400,0.13793,15.000000000000002
1500804000,0.13793,15.000000000000002
1500807600,0.13793,15.000000000000002
1500811200,0.13793,15.000000000000002
1500814800,0.13793,15.000000000000002
1500818400,0.13793,15.000000000000002
1500822000,0.13793,15.000000000000002
1500825600,0.13793,15.000000000000002
1500829200,0.13793,15.000000000000002
1500832800,0.13793,15.000000000000002
1500836400,0.13793,15.000000000000002
1500840000,0.13793,15.000000000000002
1500843600,0.13793,15.000000000000002
1500847200,0.13793,15.000000000000002
1500850800,0.13793,15.000000000000002
1500854400,0.13793,15.000000000000002
1500858000,0.13793,15.000000000000002
1500861600,0.13793,15.000000000000002
1500865200,0.13793,15.000000000000002
1500868800,0.13793,15.000000000000002
1500872400,0.13793,15.000000000000002
1500876000,0.13793,15.000000000000002
1500879600,0.13793,15.000000000000002
1500883200,0.166,15.000000000000002
1500886800,0.166,15.000000000000002
1500890400,0.166,15.000000000000002
1500894000,0.166,15.000000000000002
1500897600,0.22113,15.000000000000002
1500901200,0.22113,15.000000000000002
1500904800,0.22113,15.000000000000002
1500908400,0.22113,15.000000000000002
1500912000,0.22113,15.000000000000002
1500915600,0.22113,15.000000000000002
1500919200,0.166,15.000000000000002
1500922800,0.166,15.000000000000002
1500926400,0.166,15.000000000000002
1500930000,0.13793,15.000000000000002
1500933600,0.13793,15.000000000000002
1500937200,0.13793,15.000000000000002
1500940800,0.13793,15.000000000000002
1500944400,0.13793,15.000000000000002
1500948000,0.13793,15.000000000000002
1500951600,0.13793,15.000000000000002
1500955200,0.13793,15.000000000000002
1500958800,0.13793,15.000000000000002
1500962400,0.13793,15.000000000000002
1500966000,0.13793,15.000000000000002
1500969600,0.166,15.000000000000002
1500973200,0.166,15.000000000000002
1500976800,0.166,15.000000000000002
1500980400,0.166,15.000000000000002
1500984000,0.22113,15.000000000000002
1500987600,0.22113,15.000000000000002
1500991200,0.22113,15.000000000000002
1500994800,0.22113,15.000000000000002
1500998400,0.22113,15.000000000000002
1501002000,0.22113,15.000000000000002
1501005600,0.166,15.000000000000002
1501009200,0.166,15.000000000000002
1501012800,0.166,15.000000000000002
1501016400,0.13793,15.000000000000002
1501020000,0.13793,15.000000000000002
1501023600,0.13793,15.000000000000002
1501027200,0.13793,15.000000000000002
1501030800,0.13793,15.000000000000002
1501034400,0.13793,15.000000000000002
1501038000,0.13793,15.000000000000002
1501041600,0.13793,15.000000000000002
1501045200,0.13793,15.000000000000002
1501048800,0.13793,15.000000000000002
1501052400,0.13793,15.000000000000002
1501056000,0.166,15.000000000000002
1501059600,0.166,15.000000000000002
1501063200,0.166,15.000000000000002
1501066800,0.166,15.000000000000002
1501070400,0.22113,15.000000000000002
1501074000,0.22113,15.000000000000002
1501077600,0.22113,15.000000000000002
1501081200,0.22113,15.000000000000002
1501084800,0.22113,15.000000000000002
1501088400,0.22113,15.000000000000002
1501092000,0.166,15.000000000000002
1501095600,0.166,15.000000000000002
1501099200,0.166,15.000000000000002
1501102800,0.13793,15.000000000000002
1501106400,0.13793,15.000000000000002
1501110000,0.13793,15.000000000000002
1501113600,0.13793,15.000000000000002
1501117200,0.13793,15.000000000000002
1501120800,0.13793,15.000000000000002
1501124400,0.13793,15.000000000000002
1501128000,0.13793,15.000000000000002
1501131600,0.13793,15.000000000000002
1501135200,0.13793,15.000000000000002
1501138800,0.13793,15.000000000000002
1501142400,0.166,15.000000000000002
1501146000,0.166,15.000000000000002
1501149600,0.166,15.000000000000002
1501153200,0.166,15.000000000000002
1501156800,0.22113,15.000000000000002
1501160400,0.22113,15.000000000000002
1501164000,1.1211300000000002,15.000000000000002
1501167600,1.1211300000000002,15.000000000000002
1501171200,1.1211300000000002,15.000000000000002
1501174800,1.1211300000000002,15.000000000000002
1501178400,0.166,15.000000000000002
1501182000,0.166,15.000000000000002
1501185600,0.166,15.000000000000002
1501189200,0.13793,15.000000000000002
1501192800,0.13793,15.000000000000002
1501196400,0.13793,15.000000000000002
1501200000,0.13793,15.000000000000002
1501203600,0.13793,15.000000000000002
1501207200,0.13793,15.000000000000002
1501210800,0.13793,15.000000000000002
1501214400,0.13793,15.000000000000002
1501218000,0.13793,15.000000000000002
1501221600,0.13793,15.000000000000002
1501225200,0.13793,15.000000000000002
1501228800,0.166,15.000000000000002
1501232400,0.166,15.000000000000002
1501236000,0.166,15.000000000000002
1501239600,0.166,15.000000000000002
1501243200,0.22113,15.000000000000002
1501246800,0.22113,15.000000000000002
1501250400,0.22113,15.000000000000002
1501254000,0.22113,15.000000000000002
1501257600,0.22113,15.000000000000002
1501261200,0.22113,15.000000000000002
1501264800,0.166,15.000000000000002
1501268400,0.166,15.000000000000002
1501272000,0.166,15.000000000000002
1501275600,0.13793,15.000000000000002
1501279200,0.13793,15.000000000000002
1501282800,0.13793,15.000000000000002
1501286400,0.13793,15.000000000000002
1501290000,0.13793,15.000000000000002
1501293600,0.13793,15.000000000000002
1501297200,0.13793,15.000000000000002
1501300800,0.13793,15.000000000000002
1501304400,0.13793,15.000000000000002
1501308000,0.13793,15.000000000000002
1501311600,0.13793,15.000000000000002
1501315200,0.13793,15.000000000000002
1501318800,0.13793,15.000000000000002
1501322400,0.13793,15.000000000000002
1501326000,0.13793,15.000000000000002
1501329600,0.13793,15.000000000000002
1501333200,0.13793,15.000000000000002
1501336800,0.13793,15.000000000000002
1501340400,0.13793,15.000000000000002
1501344000,0.13793,15.000000000000002
1501347600,0.13793,15.000000000000002
1501351200,0.13793,15.000000000000002
1501354800,0.13793,15.000000000000002
1501358400,0.13793,15.000000000000002
1501362000,0.13793,15.000000000000002
1501365600,0.13793,15.000000000000002
1501369200,0.13793,15.000000000000002
1501372800,0.13793,15.000000000000002
1501376400,0.13793,15.000000000000002
1501380000,0.13793,15.000000000000002
1501383600,0.13793,15.000000000000002
1501387200,0.13793,15.000000000000002
1501390800,0.13793,15.000000000000002
1501394400,0.13793,15.000000000000002
1501398000,0.13793,15.000000000000002
1501401600,0.13793,15.000000000000002
1501405200,0.13793,15.000000000000002
1501408800,0.13793,15.000000000000002
1501412400,0.13793,15.000000000000002
1501416000,0.13793,15.000000000000002
1501419600,0.13793,15.000000000000002
1501423200,0.13793,15.000000000000002
1501426800,0.13793,15.000000000000002
1501430400,0.13793,15.000000000000002
1501434000,0.13793,15.000000000000002
1501437600,0.13793,15.000000000000002
1501441200,0.13793,15.000000000000002
1501444800,0.13793,15.000000000000002
1501448400,0.13793,15.000000000000002
1501452000,0.13793,15.000000000000002
1501455600,0.13793,15.000000000000002
1501459200,0.13793,15.000000000000002
1501462800,0.13793,15.000000000000002
1501466400,0.13793,15.000000000000002
1501470000,0.13793,15.000000000000002
1501473600,0.13793,15.000000000000002
1501477200,0.13793,15.000000000000002
1501480800,0.13793,15.000000000000002
1501484400,0.13793,15.000000000000002
1501488000,0.166,15.000000000000002
1501491600,0.166,15.000000000000002
1501495200,0.166,15.000000000000002
1501498800,0.166,15.000000000000002
1501502400,0.22113,15.000000000000002
1501506000,0.22113,15.000000000000002
1501509600,0.22113,15.000000000000002
1501513200,0.22113,15.000000000000002
1501516800,0.22113,15.000000000000002
1501520400,0.22113,15.000000000000002
1501524000,0.166,15.000000000000002
1501527600,0.166,15.000000000000002
1501531200,0.166,15.000000000000002
1501534800,0.13793,15.000000000000002
1501538400,0.13793,15.000000000000002
1501542000,0.13793,15.000000000000002
1501545600,0.13793,15.000000000000002
1501549200,0.13793,15.000000000000002
1501552800,0.13793,15.000000000000002
1501556400,0.13793,15.000000000000002
1501560000,0.13793,15.000000000000002
1501563600,0.13793,15.000000000000002
1501567200,0.13793,15.000000000000002
1501570800,0.13793,15.000000000000002
1501574400,0.166,15.000000000000002
1501578000,0.166,15.000000000000002
1501581600,0.166,15.000000000000002
1501585200,0.166,15.000000000000002
1501588800,0.22113,15.000000000000002
1501592400,0.22113,15.000000000000002
1501596000,0.22113,15.000000000000002
1501599600,0.22113,15.000000000000002
1501603200,0.22113,15.000000000000002
1501606800,0.22113,15.000000000000002
1501610400,0.166,15.000000000000002
1501614000,0.166,15.000000000000002
1501617600,0.166,15.000000000000002
1501621200,0.13793,15.000000000000002
1501624800,0.13793,15.000000000000002
1501628400,0.13793,15.000000000000002
1501632000,0.13793,15.000000000000002
1501635600,0.13793,15.000000000000002
1501639200,0.13793,15.000000000000002
1501642800,0.13793,15.000000000000002
1501646400,0.13793,15.000000000000002
1501650000,0.13793,15.000000000000002
1501653600,0.13793,15.000000000000002
1501657200,0.13793,15.000000000000002
1501660800,0.166,15.000000000000002
1501664400,0.166,15.000000000000002
1501668000,0.166,15.000000000000002
1501671600,0.166,15.000000000000002
1501675200,0.22113,15.000000000000002
1501678800,0.22113,15.000000000000002
1501682400,0.22113,15.000000000000002
1501686000,0.22113,15.000000000000002
1501689600,0.22113,15.000000000000002
1501693200,0.22113,15.000000000000002
1501696800,0.166,15.000000000000002
1501700400,0.166,15.000000000000002
1501704000,0.166,15.000000000000002
1501707600,0.13793,15.000000000000002
1501711200,0.13793,15.000000000000002
1501714800,0.13793,15.000000000000002
1501718400,0.13793,15.000000000000002
1501722000,0.13793,15.000000000000002
1501725600,0.13793,15.000000000000002
1501729200,0.13793,15.000000000000002
1501732800,0.13793,15.000000000000002
1501736400,0.13793,15.000000000000002
1501740000,0.13793,15.000000000000002
1501743600,0.13793,15.000000000000002
1501747200,0.166,15.000000000000002
1501750800,0.166,15.000000000000002
1501754400,0.166,15.000000000000002
1501758000,0.166,15.000000000000002
1501761600,0.22113,15.000000000000002
1501765200,0.22113,15.000000000000002
1501768800,0.22113,15.000000000000002
1501772400,0.22113,15.000000000000002
1501776000,0.22113,15.000000000000002
1501779600,0.22113,15.000000000000002
1501783200,0.166,15.000000000000002
1501786800,0.166,15.000000000000002
1501790400,0.166,15.000000000000002
1501794000,0.13793,15.000000000000002
1501797600,0.13793,15.000000000000002
1501801200,0.13793,15.000000000000002
1501804800,0.13793,15.000000000000002
1501808400,0.13793,15.000000000000002
1501812000,0.13793,15.000000000000002
1501815600,0.13793,15.000000000000002
1501819200,0.13793,15.000000000000002
1501822800,0.13793,15.000000000000002
1501826400,0.13793,15.000000000000002
1501830000,0.13793,15.000000000000002
1501833600,0.166,15.000000000000002
1501837200,0.166,15.000000000000002
1501840800,0.166,15.000000000000002
1501844400,0.166,15.000000000000002
1501848000,0.22113,15.000000000000002
1501851600,0.22113,15.000000000000002
1501855200,0.22113,15.000000000000002
1501858800,0.22113,15.000000000000002
1501862400,0.22113,15.000000000000002
1501866000,0.22113,15.000000000000002
1501869600,0.166,15.000000000000002
1501873200,0.166,15.000000000000002
1501876800,0.166,15.000000000000002
1501880400,0.13793,15.000000000000002
1501884000,0.13793,15.000000000000002
1501887600,0.13793,15.000000000000002
1501891200,0.13793,15.000000000000002
1501894800,0.13793,15.000000000000002
1501898400,0.13793,15.000000000000002
1501902000,0.13793,15.000000000000002
1501905600,0.13793,15.000000000000002
1501909200,0.13793,15.000000000000002
1501912800,0.13793,15.000000000000002
1501916400,0.13793,15.000000000000002
1501920000,0.13793,15.000000000000002
1501923600,0.13793,15.000000000000002
1501927200,0.13793,15.000000000000002
1501930800,0.13793,15.000000000000002
1501934400,0.13793,15.000000000000002
1501938000,0.13793,15.000000000000002
1501941600,0.13793,15.000000000000002
1501945200,0.13793,15.000000000000002
1501948800,0.13793,15.000000000000002
1501952400,0.13793,15.000000000000002
1501956000,0.13793,15.000000000000002
1501959600,0.13793,15.000000000000002
1501963200,0.13793,15.000000000000002
1501966800,0.13793,15.000000000000002
1501970400,0.13793,15.000000000000002
1501974000,0.13793,15.000000000000002
1501977600,0.13793,15.000000000000002
1501981200,0.13793,15.000000000000002
1501984800,0.13793,15.000000000000002
1501988400,0.13793,15.000000000000002
1501992000,0.13793,15.000000000000002
1501995600,0.13793,15.000000000000002
1501999200,0.13793,15.000000000000002
1502002800,0.13793,15.000000000000002
1502006400,0.13793,15.000000000000002
1502010000,0.13793,15.000000000000002
1502013600,0.13793,15.000000000000002
1502017200,0.13793,15.000000000000002
1502020800,0.13793,15.000000000000002
1502024400,0.13793,15.000000000000002
1502028000,0.13793,15.000000000000002
1502031600,0.13793,15.000000000000002
1502035200,0.13793,15.000000000000002
1502038800,0.13793,15.000000000000002
1502042400,0.13793,15.000000000000002
1502046000,0.13793,15.000000000000002
1502049600,0.13793,15.000000000000002
1502053200,0.13793,15.000000000000002
1502056800,0.13793,15.000000000000002
1502060400,0.13793,15.000000000000002
1502064000,0.13793,15.000000000000002
1502067600,0.13793,15.000000000000002
1502071200,0.13793,15.000000000000002
1502074800,0.13793,15.000000000000002
1502078400,0.13793,15.000000000000002
1502082000,0.13793,15.000000000000002
1502085600,0.13793,15.000000000000002
1502089200,0.13793,15.000000000000002
1502092800,0.166,15.000000000000002
1502096400,0.166,15.000000000000002
1502100000,0.166,15.000000000000002
1502103600,0.166,15.000000000000002
1502107200,0.22113,15.000000000000002
1502110800,0.22113,15.000000000000002
1502114400,0.22113,15.000000000000002
1502118000,0.22113,15.000000000000002
1502121600,0.22113,15.000000000000002
1502125200,0.22113,15.000000000000002
1502128800,0.166,15.000000000000002
1502132400,0.166,15.000000000000002
1502136000,0.166,15.000000000000002
1502139600,0.13793,15.000000000000002
1502143200,0.13793,15.000000000000002
1502146800,0.13793,15.000000000000002
1502150400,0.13793,15.000000000000002
1502154000,0.13793,15.000000000000002
1502157600,0.13793,15.000000000000002
1502161200,0.13793,15.000000000000002
1502164800,0.13793,15.000000000000002
1502168400,0.13793,15.000000000000002
1502172000,0.13793,15.000000000000002
1502175600,0.13793,15.000000000000002
1502179200,0.166,15.000000000000002
1502182800,0.166,15.000000000000002
1502186400,0.166,15.000000000000002
1502190000,0.166,15.000000000000002
1502193600,0.22113,15.000000000000002
1502197200,0.22113,15.000000000000002
1502200800,0.22113,15.000000000000002
1502204400,0.22113,15.000000000000002
1502208000,0.22113,15.000000000000002
1502211600,0.22113,15.000000000000002
1502215200,0.166,15.000000000000002
1502218800,0.166,15.000000000000002
1502222400,0.166,15.000000000000002
1502226000,0.13793,15.000000000000002
1502229600,0.13793,15.000000000000002
1502233200,0.13793,15.000000000000002
1502236800,0.13793,15.000000000000002
1502240400,0.13793,15.000000000000002
1502244000,0.13793,15.000000000000002
1502247600,0.13793,15.000000000000002
1502251200,0.13793,15.000000000000002
1502254800,0.13793,15.000000000000002
1502258400,0.13793,15.000000000000002
1502262000,0.13793,15.000000000000002
1502265600,0.166,15.000000000000002
1502269200,0.166,15.000000000000002
1502272800,0.166,15.000000000000002
1502276400,0.166,15.000000000000002
1502280000,0.22113,15.000000000000002
1502283600,0.22113,15.000000000000002
1502287200,0.22113,15.000000000000002
1502290800,0.22113,15.000000000000002
1502294400,0.22113,15.000000000000002
1502298000,0.22113,15.000000000000002
1502301600,0.166,15.000000000000002
1502305200,0.166,15.000000000000002
1502308800,0.166,15.000000000000002
1502312400,0.13793,15.000000000000002
1502316000,0.13793,15.000000000000002
1502319600,0.13793,15.000000000000002
1502323200,0.13793,15.000000000000002
1502326800,0.13793,15.000000000000002
1502330400,0.13793,15.000000000000002
1502334000,0.13793,15.000000000000002
1502337600,0.13793,15.000000000000002
1502341200,0.13793,15.000000000000002
1502344800,0.13793,15.000000000000002
1502348400,0.13793,15.000000000000002
1502352000,0.166,15.000000000000002
1502355600,0.166,15.000000000000002
1502359200,0.166,15.000000000000002
1502362800,0.166,15.000000000000002
1502366400,0.22113,15.000000000000002
1502370000,0.22113,15.000000000000002
1502373600,0.22113,15.000000000000002
1502377200,0.22113,15.000000000000002
1502380800,0.22113,15.000000000000002
1502384400,0.22113,15.000000000000002
1502388000,0.166,15.000000000000002
1502391600,0.166,15.000000000000002
1502395200,0.166,15.000000000000002
1502398800,0.13793,15.000000000000002
1502402400,0.13793,15.000000000000002
1502406000,0.13793,15.000000000000002
1502409600,0.13793,15.000000000000002
1502413200,0.13793,15.000000000000002
1502416800,0.13793,15.000000000000002
1502420400,0.13793,15.000000000000002
1502424000,0.13793,15.000000000000002
1502427600,0.13793,15.000000000000002
1502431200,0.13793,15.000000000000002
1502434800,0.13793,15.000000000000002
1502438400,0.166,15.000000000000002
1502442000,0.166,15.000000000000002
1502445600,0.166,15.000000000000002
1502449200,0.166,15.000000000000002
1502452800,0.22113,15.000000000000002
1502456400,0.22113,15.000000000000002
1502460000,0.22113,15.000000000000002
1502463600,0.22113,15.000000000000002
1502467200,0.22113,15.000000000000002
1502470800,0.22113,15.000000000000002
1502474400,0.166,15.000000000000002
1502478000,0.166,15.000000000000002
1502481600,0.166,15.000000000000002
1502485200,0.13793,15.000000000000002
1502488800,0.13793,15.000000000000002
1502492400,0.13793,15.000000000000002
1502496000,0.13793,15.000000000000002
1502499600,0.13793,15.000000000000002
1502503200,0.13793,15.000000000000002
1502506800,0.13793,15.000000000000002
1502510400,0.13793,15.000000000000002
1502514000,0.13793,15.000000000000002
1502517600,0.13793,15.000000000000002
1502521200,0.13793,15.000000000000002
1502524800,0.13793,15.000000000000002
1502528400,0.13793,15.000000000000002
1502532000,0.13793,15.000000000000002
1502535600,0.13793,15.000000000000002
1502539200,0.13793,15.000000000000002
1502542800,0.13793,15.000000000000002
1502546400,0.13793,15.000000000000002
1502550000,0.13793,15.000000000000002
1502553600,0.13793,15.000000000000002
1502557200,0.13793,15.000000000000002
1502560800,0.13793,15.000000000000002
1502564400,0.13793,15.000000000000002
1502568000,0.13793,15.000000000000002
1502571600,0.13793,15.000000000000002
1502575200,0.13793,15.000000000000002
1502578800,0.13793,15.000000000000002
1502582400,0.13793,15.000000000000002
1502586000,0.13793,15.000000000000002
1502589600,0.13793,15.000000000000002
1502593200,0.13793,15.000000000000002
1502596800,0.13793,15.000000000000002
1502600400,0.13793,15.000000000000002
1502604000,0.13793,15.000000000000002
1502607600,0.13793,15.000000000000002
1502611200,0.13793,15.000000000000002
1502614800,0.13793,15.000000000000002
1502618400,0.13793,15.000000000000002
1502622000,0.13793,15.000000000000002
1502625600,0.13793,15.000000000000002
1502629200,0.13793,15.000000000000002
1502632800,0.13793,15.000000000000002
1502636400,0.13793,15.000000000000002
1502640000,0.13793,15.000000000000002
1502643600,0.13793,15.000000000000002
1502647200,0.13793,15.000000000000002
1502650800,0.13793,15.000000000000002
1502654400,0.13793,15.000000000000002
1502658000,0.13793,15.000000000000002
1502661600,0.13793,15.000000000000002
1502665200,0.13793,15.000000000000002
1502668800,0.13793,15.000000000000002
1502672400,0.13793,15.000000000000002
1502676000,0.13793,15.000000000000002
1502679600,0.13793,15.000000000000002
1502683200,0.13793,15.000000000000002
1502686800,0.13793,15.000000000000002
1502690400,0.13793,15.000000000000002
1502694000,0.13793,15.000000000000002
1502697600,0.166,15.000000000000002
1502701200,0.166,15.000000000000002
1502704800,0.166,15.000000000000002
1502708400,0.166,15.000000000000002
1502712000,0.22113,15.000000000000002
1502715600,0.22113,15.000000000000002
1502719200,0.22113,15.000000000000002
1502722800,0.22113,15.000000000000002
1502726400,0.22113,15.000000000000002
1502730000,0.22113,15.000000000000002
1502733600,0.166,15.000000000000002
1502737200,0.166,15.000000000000002
1502740800,0.166,15.000000000000002
1502744400,0.13793,15.000000000000002
1502748000,0.13793,15.000000000000002
1502751600,0.13793,15.000000000000002
1502755200,0.13793,15.000000000000002
1502758800,0.13793,15.000000000000002
1502762400,0.13793,15.000000000000002
1502766000,0.13793,15.000000000000002
1502769600,0.13793,15.000000000000002
1502773200,0.13793,15.000000000000002
1502776800,0.13793,15.000000000000002
1502780400,0.13793,15.000000000000002
1502784000,0.166,15.000000000000002
1502787600,0.166,15.000000000000002
1502791200,0.166,15.000000000000002
1502794800,0.166,15.000000000000002
1502798400,0.22113,15.000000000000002
1502802000,0.22113,15.000000000000002
1502805600,0.22113,15.000000000000002
1502809200,0.22113,15.000000000000002
1502812800,0.22113,15.000000000000002
1502816400,0.22113,15.000000000000002
1502820000,0.166,15.000000000000002
1502823600,0.166,15.000000000000002
1502827200,0.166,15.000000000000002
1502830800,0.13793,15.000000000000002
1502834400,0.13793,15.000000000000002
1502838000,0.13793,15.000000000000002
1502841600,0.13793,15.000000000000002
1502845200,0.13793,15.000000000000002
1502848800,0.13793,15.000000000000002
1502852400,0.13793,15.000000000000002
1502856000,0.13793,15.000000000000002
1502859600,0.13793,15.000000000000002
1502863200,0.13793,15.000000000000002
1502866800,0.13793,15.000000000000002
1502870400,0.166,15.000000000000002
1502874000,0.166,15.000000000000002
1502877600,0.166,15.000000000000002
1502881200,0.166,15.000000000000002
1502884800,0.22113,15.000000000000002
1502888400,0.22113,15.000000000000002
1502892000,0.22113,15.000000000000002
1502895600,0.22113,15.000000000000002
1502899200,0.22113,15.000000000000002
1502902800,0.22113,15.000000000000002
1502906400,0.166,15.000000000000002
1502910000,0.166,15.000000000000002
1502913600,0.166,15.000000000000002
1502917200,0.13793,15.000000000000002
1502920800,0.13793,15.000000000000002
1502924400,0.13793,15.000000000000002
1502928000,0.13793,15.000000000000002
1502931600,0.13793,15.000000000000002
1502935200,0.13793,15.000000000000002
1502938800,0.13793,15.000000000000002
1502942400,0.13793,15.000000000000002
1502946000,0.13793,15.000000000000002
1502949600,0.13793,15.000000000000002
1502953200,0.13793,15.000000000000002
1502956800,0.166,15.000000000000002
1502960400,0.166,15.000000000000002
1502964000,0.166,15.000000000000002
1502967600,0.166,15.000000000000002
1502971200,0.22113,15.000000000000002
1502974800,0.22113,15.000000000000002
1502978400,0.22113,15.000000000000002
1502982000,0.22113,15.000000000000002
1502985600,0.22113,15.000000000000002
1502989200,0.22113,15.000000000000002
1502992800,0.166,15.000000000000002
1502996400,0.166,15.000000000000002
1503000000,0.166,15.000000000000002
1503003600,0.13793,15.000000000000002
1503007200,0.13793,15.000000000000002
1503010800,0.13793,15.000000000000002
1503014400,0.13793,15.000000000000002
1503018000,0.13793,15.000000000000002
1503021600,0.13793,15.000000000000002
1503025200,0.13793,15.000000000000002
1503028800,0.13793,15.000000000000002
1503032400,0.13793,15.000000000000002
1503036000,0.13793,15.000000000000002
1503039600,0.13793,15.000000000000002
1503043200,0.166,15.000000000000002
1503046800,0.166,15.000000000000002
1503050400,0.166,15.000000000000002
1503054000,0.166,15.000000000000002
1503057600,0.22113,15.000000000000002
1503061200,0.22113,15.000000000000002
1503064800,0.22113,15.000000000000002
1503068400,0.22113,15.000000000000002
1503072000,0.22113,15.000000000000002
1503075600,0.22113,15.000000000000002
1503079200,0.166,15.000000000000002
1503082800,0.166,15.000000000000002
1503086400,0.166,15.000000000000002
1503090000,0.13793,15.000000000000002
1503093600,0.13793,15.000000000000002
1503097200,0.13793,15.000000000000002
1503100800,0.13793,15.000000000000002
1503104400,0.13793,15.000000000000002
1503108000,0.13793,15.000000000000002
1503111600,0.13793,15.000000000000002
1503115200,0.13793,15.000000000000002
1503118800,0.13793,15.000000000000002
1503122400,0.13793,15.000000000000002
1503126000,0.13793,15.000000000000002
1503129600,0.13793,15.000000000000002
1503133200,0.13793,15.000000000000002
1503136800,0.13793,15.000000000000002
1503140400,0.13793,15.000000000000002
1503144000,0.13793,15.000000000000002
1503147600,0.13793,15.000000000000002
1503151200,0.13793,15.000000000000002
1503154800,0.13793,15.000000000000002
1503158400,0.13793,15.000000000000002
1503162000,0.13793,15.000000000000002
1503165600,0.13793,15.000000000000002
1503169200,0.13793,15.000000000000002
1503172800,0.13793,15.000000000000002
1503176400,0.13793,15.000000000000002
1503180000,0.13793,15.000000000000002
1503183600,0.13793,15.000000000000002
1503187200,0.13793,15.000000000000002
1503190800,0.13793,15.000000000000002
1503194400,0.13793,15.000000000000002
1503198000,0.13793,15.000000000000002
1503201600,0.13793,15.000000000000002
1503205200,0.13793,15.000000000000002
1503208800,0.13793,15.000000000000002
1503212400,0.13793,15.000000000000002
1503216000,0.13793,15.000000000000002
1503219600,0.13793,15.000000000000002
1503223200,0.13793,15.000000000000002
1503226800,0.13793,15.000000000000002
1503230400,0.13793,15.000000000000002
1503234000,0.13793,15.000000000000002
1503237600,0.13793,15.000000000000002
1503241200,0.13793,15.000000000000002
1503244800,0.13793,15.000000000000002
1503248400,0.13793,15.000000000000002
1503252000,0.13793,15.000000000000002
1503255600,0.13793,15.000000000000002
1503259200,0.13793,15.000000000000002
1503262800,0.13793,15.000000000000002
1503266400,0.13793,15.000000000000002
1503270000,0.13793,15.000000000000002
1503273600,0.13793,15.000000000000002
1503277200,0.13793,15.000000000000002
1503280800,0.13793,15.000000000000002
1503284400,0.13793,15.000000000000002
1503288000,0.13793,15.000000000000002
1503291600,0.13793,15.000000000000002
1503295200,0.13793,15.000000000000002
1503298800,0.13793,15.000000000000002
1503302400,0.166,15.000000000000002
1503306000,0.166,15.000000000000002
1503309600,0.166,15.000000000000002
1503313200,0.166,15.000000000000002
1503316800,0.22113,15.000000000000002
1503320400,0.22113,15.000000000000002
1503324000,0.22113,15.000000000000002
1503327600,0.22113,15.000000000000002
1503331200,0.22113,15.000000000000002
1503334800,0.22113,15.000000000000002
1503338400,0.166,15.000000000000002
1503342000,0.166,15.000000000000002
1503345600,0.166,15.000000000000002
1503349200,0.13793,15.000000000000002
1503352800,0.13793,15.000000000000002
1503356400,0.13793,15.000000000000002
1503360000,0.13793,15.000000000000002
1503363600,0.13793,15.000000000000002
1503367200,0.13793,15.000000000000002
1503370800,0.13793,15.000000000000002
1503374400,0.13793,15.000000000000002
1503378000,0.13793,15.000000000000002
1503381600,0.13793,15.000000000000002
1503385200,0.13793,15.000000000000002
1503388800,0.166,15.000000000000002
1503392400,0.166,15.000000000000002
1503396000,0.166,15.000000000000002
1503399600,0.166,15.000000000000002
1503403200,0.22113,15.000000000000002
1503406800,0.22113,15.000000000000002
1503410400,0.22113,15.000000000000002
1503414000,0.22113,15.000000000000002
1503417600,0.22113,15.000000000000002
1503421200,0.22113,15.000000000000002
1503424800,0.166,15.000000000000002
1503428400,0.166,15.000000000000002
1503432000,0.166,15.000000000000002
1503435600,0.13793,15.000000000000002
1503439200,0.13793,15.000000000000002
1503442800,0.13793,15.000000000000002
1503446400,0.13793,15.000000000000002
1503450000,0.13793,15.000000000000002
1503453600,0.13793,15.000000000000002
1503457200,0.13793,15.000000000000002
1503460800,0.13793,15.000000000000002
1503464400,0.13793,15.000000000000002
1503468000,0.13793,15.000000000000002
1503471600,0.13793,15.000000000000002
1503475200,0.166,15.000000000000002
1503478800,0.166,15.000000000000002
1503482400,0.166,15.000000000000002
1503486000,0.166,15.000000000000002
1503489600,0.22113,15.000000000000002
1503493200,0.22113,15.000000000000002
1503496800,0.22113,15.000000000000002
1503500400,0.22113,15.000000000000002
1503504000,0.22113,15.000000000000002
1503507600,0.22113,15.000000000000002
1503511200,0.166,15.000000000000002
1503514800,0.166,15.000000000000002
1503518400,0.166,15.000000000000002
1503522000,0.13793,15.000000000000002
1503525600,0.13793,15.000000000000002
1503529200,0.13793,15.000000000000002
1503532800,0.13793,15.000000000000002
1503536400,0.13793,15.000000000000002
1503540000,0.13793,15.000000000000002
1503543600,0.13793,15.000000000000002
1503547200,0.13793,15.000000000000002
1503550800,0.13793,15.000000000000002
1503554400,0.13793,15.000000000000002
1503558000,0.13793,15.000000000000002
1503561600,0.166,15.000000000000002
1503565200,0.166,15.000000000000002
1503568800,0.166,15.000000000000002
1503572400,0.166,15.000000000000002
1503576000,0.22113,15.000000000000002
1503579600,0.22113,15.000000000000002
1503583200,0.22113,15.000000000000002
1503586800,0.22113,15.000000000000002
1503590400,0.22113,15.000000000000002
1503594000,0.22113,15.000000000000002
1503597600,0.166,15.000000000000002
1503601200,0.166,15.000000000000002
1503604800,0.166,15.000000000000002
1503608400,0.13793,15.000000000000002
1503612000,0.13793,15.000000000000002
1503615600,0.13793,15.000000000000002
1503619200,0.13793,15.000000000000002
1503622800,0.13793,15.000000000000002
1503626400,0.13793,15.000000000000002
1503630000,0.13793,15.000000000000002
1503633600,0.13793,15.000000000000002
1503637200,0.13793,15.000000000000002
1503640800,0.13793,15.000000000000002
1503644400,0.13793,15.000000000000002
1503648000,0.166,15.000000000000002
1503651600,0.166,15.000000000000002
1503655200,0.166,15.000000000000002
1503658800,0.166,15.000000000000002
1503662400,0.22113,15.000000000000002
1503666000,0.22113,15.000000000000002
1503669600,0.22113,15.000000000000002
1503673200,0.22113,15.000000000000002
1503676800,0.22113,15.000000000000002
1503680400,0.22113,15.000000000000002
1503684000,0.166,15.000000000000002
1503687600,0.166,15.000000000000002
1503691200,0.166,15.000000000000002
1503694800,0.13793,15.000000000000002
1503698400,0.13793,15.000000000000002
1503702000,0.13793,15.000000000000002
1503705600,0.13793,15.000000000000002
1503709200,0.13793,15.000000000000002
1503712800,0.13793,15.000000000000002
1503716400,0.13793,15.000000000000002
1503720000,0.13793,15.000000000000002
1503723600,0.13793,15.000000000000002
1503727200,0.13793,15.000000000000002
1503730800,0.13793,15.000000000000002
1503734400,0.13793,15.000000000000002
1503738000,0.13793,15.000000000000002
1503741600,0.13793,15.000000000000002
1503745200,0.13793,15.000000000000002
1503748800,0.13793,15.000000000000002
1503752400,0.13793,15.000000000000002
1503756000,0.13793,15.000000000000002
1503759600,0.13793,15.000000000000002
1503763200,0.13793,15.000000000000002
1503766800,0.13793,15.000000000000002
1503770400,0.13793,15.000000000000002
1503774000,0.13793,15.000000000000002
1503777600,0.13793,15.000000000000002
1503781200,0.13793,15.000000000000002
1503784800,0.13793,15.000000000000002
1503788400,0.13793,15.000000000000002
1503792000,0.13793,15.000000000000002
1503795600,0.13793,15.000000000000002
1503799200,0.13793,15.000000000000002
1503802800,0.13793,15.000000000000002
1503806400,0.13793,15.000000000000002
1503810000,0.13793,15.000000000000002
1503813600,0.13793,15.000000000000002
1503817200,0.13793,15.000000000000002
1503820800,0.13793,15.000000000000002
1503824400,0.13793,15.000000000000002
1503828000,0.13793,15.000000000000002
1503831600,0.13793,15.000000000000002
1503835200,0.13793,15.000000000000002
1503838800,0.13793,15.000000000000002
1503842400,0.13793,15.000000000000002
1503846000,0.13793,15.000000000000002
1503849600,0.13793,15.000000000000002
1503853200,0.13793,15.000000000000002
1503856800,0.13793,15.000000000000002
1503860400,0.13793,15.000000000000002
1503864000,0.13793,15.000000000000002
1503867600,0.13793,15.000000000000002
1503871200,0.13793,15.000000000000002
1503874800,0.13793,15.000000000000002
1503878400,0.13793,15.000000000000002
1503882000,0.13793,15.000000000000002
1503885600,0.13793,15.000000000000002
1503889200,0.13793,15.000000000000002
1503892800,0.13793,15.000000000000002
1503896400,0.13793,15.000000000000002
1503900000,0.13793,15.000000000000002
1503903600,0.13793,15.000000000000002
1503907200,0.166,15.000000000000002
1503910800,0.166,15.000000000000002
1503914400,0.166,15.000000000000002
1503918000,0.166,15.000000000000002
1503921600,0.22113,15.000000000000002
1503925200,0.22113,15.000000000000002
1503928800,0.22113,15.000000000000002
1503932400,0.22113,15.000000000000002
1503936000,0.22113,15.000000000000002
1503939600,0.22113,15.000000000000002
1503943200,0.166,15.000000000000002
1503946800,0.166,15.000000000000002
1503950400,0.166,15.000000000000002
1503954000,0.13793,15.000000000000002
1503957600,0.13793,15.000000000000002
1503961200,0.13793,15.000000000000002
1503964800,0.13793,15.000000000000002
1503968400,0.13793,15.000000000000002
1503972000,0.13793,15.000000000000002
1503975600,0.13793,15.000000000000002
1503979200,0.13793,15.000000000000002
1503982800,0.13793,15.000000000000002
1503986400,0.13793,15.000000000000002
1503990000,0.13793,15.000000000000002
1503993600,0.166,15.000000000000002
1503997200,0.166,15.000000000000002
1504000800,0.166,15.000000000000002
1504004400,0.166,15.000000000000002
1504008000,0.22113,15.000000000000002
1504011600,0.22113,15.000000000000002
1504015200,0.22113,15.000000000000002
1504018800,0.22113,15.000000000000002
1504022400,0.22113,15.000000000000002
1504026000,0.22113,15.000000000000002
1504029600,0.166,15.000000000000002
1504033200,0.166,15.000000000000002
1504036800,0.166,15.000000000000002
1504040400,0.13793,15.000000000000002
1504044000,0.13793,15.000000000000002
1504047600,0.13793,15.000000000000002
1504051200,0.13793,15.000000000000002
1504054800,0.13793,15.000000000000002
1504058400,0.13793,15.000000000000002
1504062000,0.13793,15.000000000000002
1504065600,0.13793,15.000000000000002
1504069200,0.13793,15.000000000000002
1504072800,0.13793,15.000000000000002
1504076400,0.13793,15.000000000000002
1504080000,0.166,15.000000000000002
1504083600,0.166,15.000000000000002
1504087200,0.166,15.000000000000002
1504090800,0.166,15.000000000000002
1504094400,0.22113,15.000000000000002
1504098000,0.22113,15.000000000000002
1504101600,0.22113,15.000000000000002
1504105200,0.22113,15.000000000000002
1504108800,0.22113,15.000000000000002
1504112400,0.22113,15.000000000000002
1504116000,0.166,15.000000000000002
1504119600,0.166,15.000000000000002
1504123200,0.166,15.000000000000002
1504126800,0.13793,15.000000000000002
1504130400,0.13793,15.000000000000002
1504134000,0.13793,15.000000000000002
1504137600,0.13793,15.000000000000002
1504141200,0.13793,15.000000000000002
1504144800,0.13793,15.000000000000002
1504148400,0.13793,15.000000000000002
1504152000,0.13793,15.000000000000002
1504155600,0.13793,15.000000000000002
1504159200,0.13793,15.000000000000002
1504162800,0.13793,15.000000000000002
1504166400,0.166,15.000000000000002
1504170000,0.166,15.000000000000002
1504173600,0.166,15.000000000000002
1504177200,0.166,15.000000000000002
1504180800,0.22113,15.000000000000002
1504184400,0.22113,15.000000000000002
1504188000,0.22113,15.000000000000002
1504191600,0.22113,15.000000000000002
1504195200,0.22113,15.000000000000002
1504198800,0.22113,15.000000000000002
1504202400,0.166,15.000000000000002
1504206000,0.166,15.000000000000002
1504209600,0.166,15.000000000000002
1504213200,0.13793,15.000000000000002
1504216800,0.13793,15.000000000000002
1504220400,0.13793,15.000000000000002
